{
	"format_version": "1.10.0",
	"geometry.male3": {
		"texturewidth": 64,
		"textureheight": 64,
		"visible_bounds_width": 3,
		"visible_bounds_height": 3,
		"visible_bounds_offset": [0, 0, 0],
		"bones": [
			{
				"name": "root",
				"pivot": [0, 0, 0]
			},
			{
				"name": "waist",
				"parent": "root",
				"pivot": [0, 12, 0]
			},
			{
				"name": "body",
				"parent": "waist",
				"pivot": [0, 24, 0],
				"cubes": [
					{"origin": [-4, 12, -2], "size": [8, 12, 4], "uv": [16, 16]}
				]
			},
			{
				"name": "head",
				"parent": "body",
				"pivot": [0, 24, 0],
				"cubes": [
					{"origin": [-4, 24, -4], "size": [8, 8, 8], "uv": [0, 0]}
				]
			},
            {
				"name": "hat",
				"parent": "head",
				"pivot": [0, 24, 0],
                "poly_mesh":{"normalized_uvs":true,"normals":[[1,0,0],[0,0,1],[0.8246,0.4991,-0.2662],[-0.2398,0.9537,-0.1818],[-0.2143,0.86,-0.4632],[-0.1906,0.6885,-0.6998],[-0.3681,0.283,-0.8857],[-0.5748,-0.3615,-0.7341],[-0.7526,-0.493,-0.4365],[-0.702,-0.5486,-0.4542],[-0.5082,0.8555,-0.099],[-0.5134,0.759,-0.4004],[-0.4502,0.6587,-0.6029],[0.2938,0.8007,-0.5221],[-0.5205,0.5855,-0.6215],[-0.8021,0.4721,-0.3658],[-0.8294,0.5086,-0.231],[-0.4958,0.8574,-0.1379],[-0.7133,0.6645,-0.2228],[0.2094,0.7112,0.6711],[0.8724,0.2079,0.4424],[0.4191,-0.8116,0.407],[-0.909,0.3797,0.1718],[-0.4223,0.9051,-0.0488],[0.2953,0.7619,-0.5764],[-0.5855,0.8084,-0.0608],[0.2809,0.931,-0.2329],[-0.5289,0.8236,-0.2047],[-0.9485,0.3133,-0.0467],[-0.9344,0.3494,0.0689],[-0.9536,0.2697,-0.1338],[-0.923,-0.0454,-0.3822],[-0.6861,-0.3003,-0.6626],[-0.9398,-0.1145,-0.322],[-0.8651,-0.171,-0.4715],[0.249,0.7443,-0.6197],[-0.6495,0.707,0.2798],[-0.8203,0.5715,-0.0211],[-0.0905,0.8937,0.4394],[-0.8667,0.4642,-0.1827],[-0.9334,-0.0511,-0.3553],[-0.8972,-0.2463,-0.3666],[-0.916,-0.2265,-0.3313],[0.1396,-0.9854,-0.097],[0.372,-0.9262,0.0613],[-0.2169,-0.9369,-0.2741],[0.8209,0.4998,-0.2763],[-0.7652,-0.5609,-0.3159],[-0.906,-0.2446,-0.3455],[-0.9556,-0.0464,-0.2909],[-0.1984,-0.9064,-0.373],[-0.3602,-0.3706,-0.8561],[-0.6544,-0.1565,-0.7398],[-0.6024,-0.6657,-0.4404],[-0.3726,0.7588,-0.5343],[-0.3611,0.8376,-0.41],[0.038,0.989,0.1431],[0.1814,0.6914,-0.6993],[-0.4187,0.8975,-0.1388],[-0.7002,-0.5761,-0.4216],[-0.6973,-0.5808,-0.4201],[-0.4735,-0.1918,0.8596],[-0.807,-0.3542,0.4725],[-0.7536,-0.3835,0.5339],[-0.7496,-0.6579,0.0726],[0.1058,-0.0852,0.9907],[0.1011,-0.0361,0.9942],[-0.3128,-0.7247,0.6139],[0.8886,0.1983,0.4135],[-0.5933,-0.8011,-0.0789],[0.6396,0.0803,0.7645],[0.6446,-0.4818,0.5936],[-0.4913,-0.7941,-0.3578],[0.1692,0.0618,0.9836],[0.3472,-0.4568,-0.819],[0.9566,-0.2796,-0.0819],[0.9423,0.0483,0.3313],[0.9141,0.0023,0.4054],[0.8503,-0.4822,-0.2107],[0.8887,0.2335,0.3945],[0.7483,-0.0536,0.6612],[0.6023,-0.0484,0.7968],[-0.0553,-0.2457,0.9678],[0.0064,-0.2845,0.9586],[-0.9549,0.0311,0.2954],[-0.9227,0.0181,0.3852],[-0.484,0.1421,0.8635],[0.4428,-0.0104,0.8966],[0.8435,-0.2752,0.4612],[0.0761,-0.4955,0.8652],[0.8882,0.2529,0.3836],[-0.805,-0.0799,0.5879],[-0.8515,0.0031,0.5244],[-0.9289,0.0192,0.3699],[0.7783,-0.3658,0.5103],[-0.529,-0.3471,0.7744],[0.8867,-0.3163,0.3372],[0.7387,-0.0528,0.6719],[0.8081,-0.2238,0.5449],[0.1057,-0.8856,0.4523],[-0.9508,0.2548,0.1763],[0.8878,0.2603,0.3795],[-0.9177,-0.3487,0.1901],[0.609,-0.7931,-0.0125],[0.6164,-0.7849,0.0622],[-0.6695,0.3606,0.6494],[-0.6772,0.3495,0.6475],[-0.7189,0.3461,0.6029],[-0.7213,0.3253,0.6115],[-0.7305,0.3763,0.5699],[0.7844,-0.3496,-0.5123],[0.7844,-0.3501,-0.512],[-1,0,0],[-0.3689,-0.7183,0.5899],[0.7795,-0.3568,-0.5149],[0.7452,-0.4014,-0.5325],[0.7402,-0.4075,-0.5349],[0.2734,-0.5992,0.7525],[0.2077,-0.6128,0.7624],[0.1632,-0.624,0.7642],[0.1321,-0.6282,0.7667],[0.1275,-0.6323,0.7642],[0.4521,-0.5329,-0.7153],[0.5085,-0.4144,-0.7548],[-0.367,-0.6881,0.626],[0.4847,-0.4415,-0.7551],[0.4581,-0.3584,-0.8134],[0.4435,-0.3627,-0.8196],[0.9235,0.0929,-0.3721],[0.8889,0.201,-0.4117],[0.9037,0.1671,-0.3942],[0.8684,0.2711,-0.4152],[0.8674,0.2802,-0.4112],[-0.799,-0.5872,0.1297],[-0.7946,-0.5923,0.1334],[-0.3644,-0.6567,0.6603],[-0.7774,-0.5999,0.189],[-0.7763,-0.6024,0.1858],[-0.8262,-0.1536,0.542],[-0.4812,-0.4412,0.7575],[-0.6097,-0.4726,0.6364],[-0.4816,0.1873,0.8561],[-0.7412,0.0867,0.6656],[-0.8235,-0.1597,0.5444],[-0.4356,0.6934,0.5741],[-0.8406,0.1717,0.5138],[-0.3573,-0.5948,0.7201],[0.9853,-0.0142,0.1703],[0.9877,0.1104,-0.1104],[0.9977,-0.0603,0.0301],[0.9841,0.0382,-0.1736],[0.9788,-0.2049,-0.0064],[0.9395,0.3417,-0.0223],[0.5951,0.7074,-0.3814],[0.6011,0.7133,-0.3605],[0.6004,0.7265,-0.3342],[0.6093,0.7333,-0.3018],[0.4888,-0.8692,0.0742],[0.991,0.0929,0.0968],[0.9867,0.1203,0.1097],[0.969,0.1821,0.1672],[0.9447,0.328,-0.0004],[0.9541,0.2166,0.2066],[0.9542,0.2577,0.1521],[-0.9768,-0.1645,0.137],[-0.9813,-0.1405,0.1316],[-0.9849,-0.0978,0.1431],[-0.991,-0.0476,0.1251],[0.3197,-0.9473,0.0221],[-0.9839,-0.08,0.1598],[-0.9145,-0.3514,-0.2007],[-0.94,-0.2729,-0.2045],[-0.9752,-0.1757,-0.1345],[-0.9834,-0.1381,-0.1174],[-0.986,-0.1638,-0.031],[-0.5135,-0.8422,-0.1645],[-0.5314,-0.8286,-0.1762],[-0.5628,-0.8142,-0.1428],[-0.584,-0.7959,-0.16],[0.4528,-0.8894,0.0628],[-0.5777,-0.8121,-0.0818],[0.9023,-0.4301,0.0297],[0.9005,-0.3784,-0.2142],[0.8744,-0.466,-0.135],[0.8334,-0.5109,-0.211],[0.8089,-0.5638,-0.1666],[0.0465,-0.7429,0.6678],[0.0415,-0.7764,0.6289],[-0.0554,-0.687,0.7246],[-0.1665,-0.6042,0.7792],[0.2648,-0.9643,0.0058],[-0.2852,-0.4499,0.8463],[-0.2853,0.3712,0.8836],[-0.261,0.3202,0.9107],[-0.3525,0.3606,0.8635],[-0.6767,0.3808,0.6301],[-0.7283,0.3851,0.5669],[0.6467,0.4936,0.5815],[0.829,0.2837,0.482],[0.6706,0.4974,0.5503],[0.68,0.4979,0.5382],[-0.1946,-0.8469,-0.4948],[0.687,0.5134,0.5142],[0.8401,0.2885,0.4594],[0.801,-0.3416,0.4916],[0.9501,-0.1492,0.2739],[0.8974,-0.2449,0.367],[0.8573,-0.3159,0.4066],[0.7668,-0.4376,0.4696],[0.6792,-0.5268,0.511],[0.8227,-0.3312,0.4621],[-0.8234,-0.4268,0.3739],[-0.5925,-0.6401,-0.489],[-0.7669,-0.4414,0.4659],[0.2402,-0.7299,0.64],[0.5088,-0.5784,0.6376],[0.9178,-0.3009,0.2592],[0.9026,-0.3649,0.2284],[0.3986,0.6756,0.6203],[0.4549,0.6116,0.6473],[0.476,0.6197,0.624],[0.6496,0.5256,0.5494],[0.6854,0.5117,0.518],[-0.9194,-0.2873,-0.2685],[-0.5938,-0.6392,-0.4886],[-0.6862,0.6955,-0.2131],[-0.52,0.7076,-0.4785],[-0.5804,0.7377,-0.3448],[-0.4466,0.7271,-0.5215],[-0.4684,0.7811,-0.413],[-0.6051,-0.723,0.3332],[-0.5982,-0.7358,0.3173],[-0.6301,-0.7079,0.3192],[-0.8921,-0.395,0.2194],[-0.9703,-0.1852,0.1558],[-0.6703,-0.5665,-0.4793],[-0.9543,0.2977,0.0253],[-0.9712,0.0691,0.2281],[-0.9561,0.2886,-0.0499],[-0.9566,0.2867,-0.0522],[-0.9473,0.2752,-0.1639],[-0.9665,0.0585,0.2498],[-0.8726,-0.3211,0.3681],[-0.8479,-0.4237,0.3188],[-0.8072,-0.5075,0.3016],[-0.8259,-0.4943,0.2713],[0.1715,-0.7243,-0.6678],[-0.8299,-0.4945,0.2583],[0.9779,-0.1773,-0.1111],[0.9943,-0.0759,0.0746],[0.9871,-0.1596,-0.0144],[0.9857,-0.0314,0.1654],[0.9854,-0.0004,0.1701],[0.9461,-0.2389,-0.2187],[0.9505,-0.251,-0.1833],[0.9517,-0.2638,-0.1569],[0.9103,0.1748,-0.3753],[0.0127,-0.813,-0.5822],[0.8938,0.2504,-0.3722],[0.9089,0.4139,0.0508],[0.7757,0.5593,0.2924],[0.5694,0.5239,0.6335],[0.3584,0.6017,0.7138],[0.6538,0.72,-0.2327],[0.1804,0.9797,0.087],[0.5646,0.8239,-0.0494],[-0.0026,-0.694,0.72],[0.1629,-0.6668,0.7272],[0.0901,-0.8092,-0.5805],[0.0539,-0.6769,0.7341],[0.2307,-0.6487,0.7252],[0.2341,-0.6601,0.7138],[0.2725,-0.6422,0.7164],[-0.8315,0.1644,0.5307],[0.4128,0.2881,0.8641],[-0.5112,0.1815,0.8401],[0.1312,0.3116,0.9411],[-0.6992,0.0112,0.7148],[0.0378,0.2571,0.9656],[-0.1613,-0.853,-0.4964],[-0.1879,-0.4656,0.8648],[-0.99,-0.139,-0.0251],[-0.9513,-0.3053,-0.043],[-0.0274,-0.8306,0.5562],[0.0123,0.0293,0.9995],[0.3605,0.1167,0.9254],[0.3039,0.3079,0.9016],[-0.428,0.5723,0.6995],[0.2655,0.3899,0.8817],[-0.4754,0.5945,0.6485],[0.17,-0.7234,-0.6692],[-0.871,0.4273,0.2424],[-0.7241,0.2809,0.6299],[-0.0581,-0.2061,0.9768],[-0.9849,-0.1229,0.1219],[-0.9795,-0.0403,0.1975],[-0.6363,0.4018,0.6585],[-0.6052,0.3722,0.7037],[0.0796,0.6497,0.756],[-0.0281,0.5949,0.8033],[-0.7779,0.2436,0.5792],[-0.3235,-0.6042,-0.7283],[-0.9233,0.233,0.3053],[-0.8717,0.2834,0.3997],[-0.3706,0.2653,0.8901],[-0.3531,0.3464,0.8691],[0.2358,0.1744,0.956],[0.2763,0.1811,0.9439],[-0.4882,0.4184,0.7659],[-0.1567,-0.8747,-0.4586],[-0.4927,-0.8057,-0.3287],[-0.7073,-0.5929,-0.3849],[0.1509,-0.4774,-0.8656],[-0.8359,-0.5022,-0.2215],[-0.9558,-0.2572,-0.1423],[-0.9914,-0.1195,-0.0542],[-0.9254,-0.3281,-0.1898],[0.6062,-0.5506,-0.5739],[0.9776,0.1575,-0.1396],[0.463,-0.6715,-0.5785],[0.9649,0.0673,-0.254],[0.7734,-0.4617,-0.4344],[-0.4177,-0.8064,-0.4186],[-0.2899,-0.4594,-0.8396],[-0.4929,-0.7457,-0.4483],[-0.832,-0.5543,0.0229],[-0.9997,-0.0239,-0.0005],[-0.9896,0.0338,0.1401],[-0.8123,0.55,0.1939],[-0.8595,0.454,0.2348],[-0.9936,0.0926,0.0652],[-0.9611,-0.2646,0.0792],[0.8841,0.2927,0.3643],[0.5787,-0.6968,0.4238],[0.6753,0.2948,0.676],[0.0318,-0.0734,-0.9968],[0.6239,-0.4172,0.6608],[0.267,-0.9324,0.2437],[-0.1922,-0.7185,0.6684],[0.5926,0.468,0.6556],[0.8633,0.43,0.2643],[0.8794,-0.3027,0.3675],[0.3605,-0.0216,0.9325],[0.0968,0.624,0.7754],[-0.6476,0.6435,0.4081],[-0.7671,0.4954,0.4075],[-0.6698,-0.5663,-0.4804],[0.5825,0.6816,0.4429],[0.9713,0.0858,0.2219],[-0.3251,-0.6229,0.7115],[0.1254,-0.4499,0.8842],[-0.4054,-0.6713,0.6206],[0.3367,-0.4687,0.8167],[0.4112,-0.5369,0.7367],[0.8394,0.148,0.523],[0.675,0.1296,0.7263],[0.1526,0.8562,0.4935],[-0.6149,-0.5023,-0.6079],[-0.4151,0.185,0.8908],[0.0957,0.8383,0.5368],[-0.5351,0.0551,0.843],[-0.7512,0.2399,0.615],[-0.8105,-0.4579,0.3653],[-0.7511,-0.4911,0.4412],[-0.8572,-0.4735,-0.2023],[-0.707,-0.6589,-0.2569],[-0.8535,-0.4772,-0.2092],[-0.7677,-0.5745,-0.2839],[-0.3587,-0.1482,-0.9216],[-0.8407,-0.5061,-0.1925],[-0.9145,-0.3735,-0.1557],[-0.9205,-0.3451,-0.1832],[-0.9175,-0.3506,-0.1878],[-0.5185,0.7545,-0.4025],[-0.5118,0.8264,-0.2349],[-0.6231,0.7465,-0.2332],[-0.6327,0.77,-0.0822],[-0.5394,-0.8316,0.1322],[-0.5217,-0.8288,0.2023],[-0.1321,0.4003,-0.9068],[0.0304,-0.9205,0.3895],[-0.2326,-0.0113,0.9725],[-0.5511,-0.1435,0.822],[0.805,0.3455,0.4823],[-0.4326,-0.8132,0.3893],[0.7892,-0.5069,0.3466],[-0.7134,-0.6444,0.2754],[-0.7491,-0.5273,0.401],[-0.8019,-0.4036,0.4405],[-0.8084,-0.3734,0.4551],[0.1687,0.3965,-0.9024],[-0.8979,-0.299,0.3232],[0.954,0.1157,-0.2765],[0.8806,-0.3173,-0.3519],[0.7852,-0.5221,-0.333],[0.966,-0.1719,-0.1931],[0.9514,0.0335,-0.306],[0.8536,-0.5205,0.0221],[0.717,-0.6444,0.2657],[0.8444,-0.5334,0.0494],[0.9394,-0.2923,0.1789],[0.3352,0.017,-0.942],[0.8878,-0.4461,0.1131],[0.9383,-0.2092,0.2756],[0.9229,0.0066,0.385],[0.8938,0.2354,0.3817],[0.8974,0.288,0.3342],[0.8724,0.4198,0.2503],[-0.6194,0.0377,0.7842],[-0.8772,0.0935,0.4709],[0.7331,-0.6403,0.2293],[-0.5282,-0.3338,0.7807],[0.1655,-0.2709,-0.9483],[0.3017,-0.6703,0.678],[-0.792,-0.5794,0.1925],[-0.7092,-0.705,-0.005],[-0.6932,-0.7207,0.0091],[-0.6004,-0.7829,-0.1629],[-0.1667,-0.9835,0.07],[0.9259,0.3116,0.2136],[0.9043,0.3519,0.2419],[0.8528,0.4394,0.2822],[0.4357,0.3718,0.8198],[0.3333,-0.5431,-0.7706],[0.6711,0.3297,0.6641],[0.3403,0.3978,0.852],[0.6814,0.1062,0.7242],[0.9514,0.1592,0.2637],[0.7244,0.4204,0.5464],[0.9856,0.1485,0.0808],[0.7092,0.408,0.5749],[0.0478,0.5577,0.8286],[-0.0392,0.4995,0.8654],[0.8457,0.3818,0.3728],[0.4137,-0.6291,-0.6581],[0.8434,0.4711,0.2583],[0.4948,-0.2082,0.8437],[0.4866,-0.0431,0.8726],[0.2552,-0.2799,0.9255],[-0.5473,-0.5308,0.647],[-0.2989,-0.3669,0.8809],[-0.7726,-0.3996,0.4934],[-0.3569,-0.254,0.8989],[-0.2687,-0.5888,0.7623],[0.967,-0.069,0.2454],[0.8423,-0.3473,-0.4123],[0.4324,-0.6491,-0.6259],[-0.4285,-0.6155,0.6615],[-0.5185,-0.7571,0.3973],[0.7564,-0.6526,-0.0439],[0.9822,0.1768,-0.0637],[0.8503,0.5187,-0.0894],[0.9061,0.3424,-0.2485],[0.957,0.1827,-0.2254],[0.8261,0.5629,-0.0267],[0.5408,0.8332,0.1156],[-0.5919,-0.5923,0.5467],[0.4263,-0.7172,-0.5513],[-0.6523,-0.5593,0.5115],[-0.7,-0.5291,0.4796],[-0.8035,-0.4465,0.3938],[-0.8204,-0.4153,0.3931],[0.9496,0.2548,0.1827],[0.8995,0.2646,-0.3476],[0.6882,0.7178,0.1056],[0.8839,0.3407,-0.3203],[0.8733,-0.1655,-0.4582],[0.8453,-0.3795,0.3761],[0.1344,0.7398,-0.6592],[-0.7109,-0.2245,0.6665],[-0.7379,-0.1863,0.6486],[-0.7687,-0.1387,0.6244],[-0.7164,-0.2169,0.6631],[-0.6848,-0.5744,-0.4485],[-0.7122,-0.6015,-0.3619],[-0.8898,-0.3363,-0.3085],[-0.9142,-0.3515,-0.2016],[-0.998,-0.0623,-0.0042],[-0.9975,0.0316,0.0639],[0.3387,0.2722,-0.9007],[-0.9555,-0.2494,-0.1572],[-0.9587,0.2842,-0.0074],[-0.9779,-0.0859,-0.1906],[-0.7668,-0.5643,-0.306],[-0.7176,0.4356,0.5434],[-0.6962,0.4087,0.5902],[-0.9216,0.2809,0.2678],[-0.9143,0.2179,0.3415],[0.0874,-0.6583,-0.7476],[0.367,-0.7187,-0.5906],[0.5589,0.1978,-0.8053],[0.8756,-0.2838,-0.3909],[0.7803,-0.4119,-0.4706],[0.9303,-0.2221,-0.292],[0.9534,-0.1983,-0.2273],[0.9046,-0.2437,-0.3498],[0.8336,-0.3793,-0.4016],[0.1143,-0.3697,0.9221],[-0.03,0.6816,0.7312],[0.3763,0.5347,0.7567],[0.6342,0.417,0.6511],[0.5432,0.0041,-0.8396],[0.6896,0.091,0.7184],[0.4817,0.0711,0.8735],[0.3102,-0.1014,0.9452],[0.3506,0.021,0.9363],[0.4537,-0.059,0.8892],[-0.0137,0.3721,0.9281],[0.0609,0.6021,0.7961],[0.5759,0.4595,0.6762],[0.0841,0.7079,0.7013],[0.0392,0.7561,0.6533],[0.6262,-0.2753,-0.7295],[0.6946,0.2905,0.6581],[0.8585,0.1337,0.495],[0.8458,-0.2901,0.4478],[0.1461,-0.9313,-0.3335],[-0.1788,-0.9455,-0.2721],[0.4121,-0.8859,-0.2128],[0.1192,-0.9799,-0.1602],[0.5524,-0.8055,-0.2148],[0.2211,-0.9739,-0.0505],[0.7575,-0.5749,0.3095],[0.7606,-0.3425,-0.5516],[0.2706,-0.9499,-0.1566],[0.9783,0.014,-0.2067],[0.9187,0.3885,-0.0711],[0.6276,0.6697,0.397],[-0.4929,-0.6859,0.5353],[-0.3806,-0.4021,0.8327],[-0.4502,-0.844,0.2914],[0.4154,-0.4961,0.7625],[0.829,-0.0812,0.5533],[0.8474,0.4383,0.2997],[0.7915,-0.3997,-0.4624],[0.7992,0.4465,0.4025],[-0.517,-0.1378,0.8448],[-0.2521,-0.1967,0.9475],[-0.8156,-0.1523,0.5582],[-0.112,-0.4694,0.8758],[-0.304,-0.5228,0.7964],[0.6662,-0.4099,0.623],[0.2467,0.1877,0.9507],[-0.2965,0.8392,0.4559],[-0.7359,0.1368,0.6632],[0.8311,-0.3767,-0.4091],[-0.4673,-0.4671,0.7506],[-0.0895,-0.9925,0.0827],[0.346,-0.9225,-0.1711],[-0.1451,-0.9881,0.052],[-0.6321,-0.7192,-0.2886],[0.8153,-0.4258,-0.3925],[0.8952,-0.4308,-0.114],[0.58,-0.3794,-0.7208],[0.7299,-0.2628,-0.631],[0.7231,0.4709,-0.5054],[0.824,0.365,-0.4334],[0.7806,0.4263,-0.457],[0.7708,0.2533,-0.5846],[0.7106,0.4337,-0.554],[0.7603,0.2174,-0.6121],[0.8982,0.4243,-0.1151],[0.8068,-0.0647,-0.5873],[0.7525,-0.3733,-0.5425],[0.7393,0.5843,-0.3347],[0.8536,-0.2856,-0.4355],[0.8909,0.0806,-0.447],[0.8492,0.1296,-0.5119],[0.8675,-0.2522,-0.4288],[0.4253,0.7926,-0.4369],[0.7665,0.5315,-0.3605],[0.5214,0.7598,-0.3884],[0.9369,0.3438,-0.0625],[0.7614,0.6119,-0.214],[0.5166,0.8441,-0.1439],[0.6716,0.7402,-0.0321],[0.7638,0.6352,-0.1141],[0.682,0.7295,0.0524],[0.499,0.8621,0.0877],[0.5084,0.8608,-0.0237],[0.1524,0.927,-0.3427],[0.2017,0.9681,-0.1487],[0.1337,0.9684,-0.2104],[0.9226,0.3766,-0.0837],[0.1439,0.876,-0.4603],[0.1685,0.801,-0.5744],[0.3395,0.3156,-0.8861],[0.5236,0.004,-0.8519],[-0.0541,0.7382,-0.6724],[-0.0803,0.8319,-0.5491],[-0.2443,0.9529,-0.1798],[0.0124,0.8852,-0.4651],[-0.0044,0.961,-0.2764],[-0.2476,0.963,-0.1066]],"positions":[[-4.033216,24.042688,4.066224],[-4.033216,24.042688,-2.462432],[4.25528,31.4144,-3.34766],[-1.537952,38.716415,7.648232],[0.038528,38.203617,4.173576],[0.03272,37.896976,0.80588],[-0.146496,36.521694,-2.831752],[-2.376048,34.155537,-5.153],[-3.771104,33.808495,-5.247272],[-3.864352,33.473618,-5.191548],[-4.96696,34.928177,-4.433768],[-3.71096,34.348495,-4.836072],[-3.78512,34.453056,-4.38276],[-4.033216,31.512112,-2.557772],[-0.926496,40.109215,10.282843],[0.596144,38.801136,7.75252],[2.647472,37.978977,4.426808],[2.901248,37.764015,1.094088],[2.936736,36.266335,-3.00372],[2.758432,34.490017,-5.430489],[5.041488,31.776024,-6.498444],[5.453648,27.187464,-6.149967],[5.994224,25.157536,-3.014528],[4.16856,23.683617,-4.07],[7.009728,26.440975,-0.425136],[5.60312,36.526897,1.277368],[5.762576,35.310337,-2.38924],[5.491024,33.660496,-4.842312],[6.976304,32.271854,-5.209868],[7.58144,32.396576,-3.675148],[7.799648,33.888496,-1.392058],[6.943024,35.918415,2.367752],[7.549888,35.333775,2.566776],[7.431152,36.489136,5.289272],[6.265696,35.970337,2.902568],[8.271792,28.565935,1.623044],[7.4092,35.268337,2.68028],[7.47336,34.640736,1.534472],[6.642064,34.504257,4.86036],[7.616176,34.545856,4.484968],[6.841168,34.668415,5.909304],[7.474176,35.597614,8.350519],[7.967952,33.632977,5.506228],[8.61824,30.985216,0.221348],[8.79688,30.829056,-0.787996],[8.409952,29.325457,-2.62414],[8.61824,30.985216,0.221348],[7.205824,30.808975,-5.241196],[8.207392,28.406977,-2.661244],[7.819728,28.029217,-3.874094],[8.963392,30.115135,0.629732],[9.450944,29.736576,0.67642],[9.534192,29.379616,1.385252],[10.217184,29.081375,1.985588],[9.257552,28.984816,-0.241692],[9.238544,28.471775,0.056452],[8.371936,28.299536,-2.027838],[4.737152,25.920897,-4.603296],[6.651888,26.913296,-3.123232],[7.833248,26.121376,-1.137232],[7.941248,26.034737,-1.790576],[9.00296,25.901297,0.645392],[8.350048,26.637136,-1.497808],[8.54384,26.826015,-0.891376],[6.82856,26.586176,-4.375088],[7.082256,31.066336,-5.626012],[8.29736,31.392096,-4.756172],[8.34816,31.250896,-4.473228],[6.651888,26.913296,-3.123232],[9.557792,31.955376,-3.798524],[8.220672,31.932495,-4.439932],[8.684944,31.869137,-3.878508],[7.860128,32.016815,-3.909596],[5.29912,23.607697,-2.088496],[4.442736,21.464895,-0.547392],[4.070224,28.587456,5.8205],[7.125264,28.187456,1.93602],[5.41088,26.410336,3.531872],[6.270608,27.245855,2.227332],[5.994224,25.157536,-3.014528],[-0.164848,25.943136,5.769792],[0.556816,29.369368,6.28082],[1.606,23.371136,5.775264],[2.635024,24.428097,2.783136],[-2.84336,29.996256,5.107796],[-2.845088,24.322096,5.428224],[-2.336464,24.895456,5.113424],[-0.431152,24.787056,5.849008],[1.480208,24.087215,5.429152],[-4.76792,29.604176,1.366612],[1.480208,24.087215,5.429152],[-5.083408,30.795776,0.984084],[-4.576832,28.544176,2.753108],[-2.803872,25.590096,2.359008],[-2.872704,30.171616,5.403988],[-1.730432,33.212177,5.790852],[1.24128,32.604015,6.741892],[-0.228688,36.629456,8.351272],[-3.289616,32.713776,6.484324],[-3.143184,36.485935,5.614568],[-2.872704,30.171616,5.403988],[1.606,23.371136,5.775264],[-2.354496,36.503777,4.355944],[-1.537952,38.716415,7.648232],[-0.926496,40.109215,10.282843],[0.596144,38.801136,7.75252],[2.647472,37.978977,4.426808],[-3.289616,32.713776,6.484324],[-3.931056,37.196255,8.931543],[-4.606336,35.212498,5.474536],[-4.846176,33.571938,2.969687],[-3.573056,27.707537,4.865905],[-4.033216,30.65576,-2.546844],[2.635024,24.428097,2.783136],[-4.578064,30.760168,5.875092],[-4.697376,27.708729,10.296979],[-5.261376,29.008816,4.555588],[-5.509504,29.002815,2.02002],[5.20848,25.917696,-2.614032],[5.989808,25.172256,-3.005696],[4.440768,23.717377,-0.600608],[4.99544,23.275137,-1.019632],[3.884144,21.930016,1.293248],[-3.788976,23.726095,-1.943072],[-2.845088,24.322096,5.428224],[-3.558624,25.180977,-3.288736],[-3.948096,25.427616,-2.860656],[-3.039696,27.188255,-5.458928],[-3.745376,27.960016,-5.07038],[-4.96696,34.928177,-4.433768],[-3.78512,34.453056,-4.38276],[-3.864352,33.473618,-5.191548],[-2.524368,34.373775,-4.223113],[-2.682752,32.397617,-5.884716],[-0.597088,24.920656,-5.12656],[-2.336464,24.895456,5.113424],[-0.89232,26.784184,-6.328304],[-1.511392,26.652975,-5.839264],[-1.272624,29.428904,-7.19686],[-2.524928,29.652983,-6.618476],[2.867824,21.459057,2.446815],[3.956496,22.722977,0.060256],[3.610128,23.191456,1.036912],[5.421536,24.316256,-2.017488],[4.750096,25.300575,0.069296],[-7.202672,31.378328,7.221892],[-2.803872,25.590096,2.359008],[-5.943952,32.514896,4.611988],[-6.422576,31.401377,2.518884],[-4.846176,33.571938,2.969687],[-5.521456,31.381935,-0.387436],[-4.7068,27.240736,0.483856],[-6.39144,27.600576,1.763524],[-5.509504,29.002815,2.02002],[-6.025248,28.782976,2.40986],[-6.820816,29.656416,1.958516],[-7.35704,28.715857,4.6113],[-4.631008,27.286407,11.571107],[8.498528,28.803129,8.024002],[7.74704,28.795135,3.676612],[7.852096,30.482977,4.4249],[8.271792,28.565935,1.623044],[7.714752,31.159857,3.755988],[-4.846176,33.571938,2.969687],[-2.354496,36.503777,4.355944],[-4.606336,35.212498,5.474536],[-3.143184,36.485935,5.614568],[-3.931056,37.196255,8.931543],[-3.573056,27.707537,4.865905],[-5.509504,29.002815,2.02002],[-5.521456,31.381935,-0.387436],[-5.261376,29.008816,4.555588],[-4.578064,30.760168,5.875092],[-4.697376,27.708729,10.296979],[4.265424,29.349529,5.859284],[3.769344,25.980255,5.350848],[3.466656,26.729528,8.408211],[3.521056,25.926088,7.671025],[2.637152,23.830168,12.063343],[-3.216272,29.120888,7.292132],[-4.211952,22.467936,2.091935],[-3.689744,24.382576,1.118928],[-4.199008,24.431295,-1.286928],[-3.755536,26.961697,-0.548672],[-4.034384,25.850416,-3.549264],[5.808704,25.634735,3.086768],[3.540896,24.371696,2.473872],[5.07648,24.759617,5.280896],[4.335728,24.249296,5.115712],[4.545088,24.172968,7.351584],[-2.872704,30.171616,5.403988],[-4.627968,26.711929,6.136976],[-4.446064,26.230177,4.687856],[-5.001872,27.413216,4.934848],[-3.226528,25.743696,1.96528],[-5.509504,29.002815,2.02002],[-4.483104,34.488815,-0.401032],[-2.208144,31.513136,-3.553356],[-4.319792,31.451536,-3.768812],[-1.322272,29.934816,-5.585276],[-4.327072,28.650097,-5.255788],[-0.60168,34.693855,10.296519],[-4.211952,22.467936,2.091935],[-4.36896,24.741936,1.18728],[-3.689744,24.382576,1.118928],[-4.7068,27.240736,0.483856],[-3.755536,26.961697,-0.548672],[6.651888,26.913296,-3.123232],[8.207392,28.406977,-2.661244],[7.833248,26.121376,-1.137232],[8.54384,26.826015,-0.891376],[9.00296,25.901297,0.645392],[-1.580224,32.784737,7.91962],[8.61824,30.985216,0.221348],[8.371936,28.299536,-2.027838],[8.963392,30.115135,0.629732],[9.238544,28.471775,0.056452],[9.534192,29.379616,1.385252],[10.217184,29.081375,1.985588],[7.714752,31.159857,3.755988],[7.967952,33.632977,5.506228],[7.315952,33.317455,6.15554],[7.474176,35.597614,8.350519],[4.25528,24.042688,4.066224],[-0.040944,33.151455,7.615844],[6.841168,34.668415,5.909304],[6.642064,34.504257,4.86036],[2.867824,21.459057,2.446815],[3.610128,23.191456,1.036912],[4.224528,22.935295,1.710688],[4.750096,25.300575,0.069296],[5.59664,25.385056,1.106096],[1.24128,32.604015,6.741892],[4.265424,29.349529,5.859284],[1.922128,32.150894,7.455508],[1.24128,32.604015,6.741892],[3.805072,31.098728,7.600932],[2.972128,33.366096,10.944758],[7.431152,36.489136,5.289272],[7.549888,35.333775,2.566776],[7.4092,35.268337,2.68028],[7.799648,33.888496,-1.392058],[7.47336,34.640736,1.534472],[6.642064,34.504257,4.86036],[7.714752,31.159857,3.755988],[6.969248,33.285538,6.8617],[7.295952,26.280256,0.26704],[7.579792,31.276728,7.017396],[7.560864,33.411938,10.493639],[8.271792,28.565935,1.623044],[6.282336,28.057129,5.895764],[5.808704,25.634735,3.086768],[4.983152,25.694576,5.546529],[2.69632,24.179688,9.994176],[-4.640672,25.870735,-0.94848],[-4.7068,27.240736,0.483856],[-4.55856,24.909777,0.089072],[7.009728,26.440975,-0.425136],[-4.36896,24.741936,1.18728],[-4.211952,22.467936,2.091935],[-4.034384,25.850416,-3.549264],[-4.199008,24.431295,-1.286928],[-4.211952,22.467936,2.091935],[5.421536,24.316256,-2.017488],[5.994224,25.157536,-3.014528],[4.750096,25.300575,0.069296],[5.533632,26.954975,-0.248848],[5.59664,25.385056,1.106096],[8.184944,27.527056,1.579635],[7.076352,26.906176,0.566784],[-6.304256,32.772255,0.704244],[-6.686432,32.587536,1.991524],[-5.413792,33.241936,0.681588],[9.557792,31.955376,-3.798524],[8.34816,31.250896,-4.473228],[8.684944,31.869137,-3.878508],[7.860128,32.016815,-3.909596],[7.205824,30.808975,-5.241196],[7.58144,32.396576,-3.675148],[8.61824,30.985216,0.221348],[-2.76576,23.861296,-3.436512],[-3.297072,25.648176,-4.271232],[-2.750928,25.773136,-4.051984],[-3.510528,27.173136,-4.891951],[-2.280336,27.495056,-4.86816],[-4.327072,28.650097,-5.255788],[-1.322272,29.934816,-5.585276],[-2.817712,25.248495,-4.833424],[-2.528544,26.924263,-6.029552],[-1.517456,29.281864,-7.169116],[8.61824,30.985216,0.221348],[0.443248,26.671703,-6.220815],[-0.911584,27.061544,-6.797744],[-0.62224,26.419144,-6.496239],[1.41736,23.877935,-4.843232],[0.71848,23.986176,-5.101552],[2.03144,22.101696,-3.665184],[1.64688,23.696575,-5.442656],[1.336816,25.615303,-6.777071],[1.433424,28.986336,-5.791436],[-3.039696,27.188255,-5.458928],[8.207392,28.406977,-2.661244],[-3.558624,25.180977,-3.288736],[-2.866224,28.555296,-5.482796],[-3.659984,25.306416,-2.780976],[-3.745376,27.960016,-5.07038],[-3.948096,25.427616,-2.860656],[-3.788976,23.726095,-1.943072],[-1.272624,29.428904,-7.19686],[-0.89232,26.784184,-6.328304],[-1.7836,30.713863,-6.632172],[-1.126016,26.626415,-5.72136],[5.652032,27.563696,-2.08987],[-2.524928,29.652983,-6.618476],[-1.511392,26.652975,-5.839264],[-0.597088,24.920656,-5.12656],[5.59664,25.385056,1.106096],[6.758656,25.124737,1.999808],[7.009728,26.440975,-0.425136],[7.582832,25.799536,1.99608],[8.271792,28.565935,1.623044],[7.79064,26.995617,3.160128],[8.241568,25.266249,6.130368],[6.651888,26.913296,-3.123232],[5.281984,25.330256,-4.063616],[5.20848,25.917696,-2.614032],[4.56336,23.153135,-1.215696],[4.440768,23.717377,-0.600608],[3.884144,21.930016,1.293248],[4.99544,23.275137,-1.019632],[5.989808,25.172256,-3.005696],[7.74704,28.795135,3.676612],[8.498528,28.803129,8.024002],[8.52312,29.938496,3.158228],[-4.033216,31.477167,4.066228],[6.651888,26.913296,-3.123232],[7.852096,30.482977,4.4249],[7.714752,31.159857,3.755988],[8.61824,30.985216,0.221348],[8.271792,28.565935,1.623044],[8.241568,25.266249,6.130368],[6.758656,25.124737,1.999808],[6.819456,25.414736,2.559632],[5.59664,25.385056,1.106096],[5.808704,25.634735,3.086768],[8.271792,28.565935,1.623044],[5.028464,27.721296,-4.352432],[7.79064,26.995617,3.160128],[3.540896,24.371696,2.473872],[3.769344,25.980255,5.350848],[4.546224,25.289215,5.635233],[5.808704,25.634735,3.086768],[5.07648,24.759617,5.280896],[4.545088,24.172968,7.351584],[4.335728,24.249296,5.115712],[4.265424,29.349529,5.859284],[0.247408,28.120089,6.61858],[5.652032,27.563696,-2.08987],[3.805072,31.098728,7.600932],[2.035536,30.624088,8.423715],[2.972128,33.366096,10.944758],[1.922128,32.150894,7.455508],[1.24128,32.604015,6.741892],[-5.509504,29.002815,2.02002],[-3.573056,27.707537,4.865905],[-5.001872,27.413216,4.934848],[-3.922128,27.408815,5.00296],[-4.627968,26.711929,6.136976],[4.23624,27.936577,-4.728956],[-4.446064,26.230177,4.687856],[-3.226528,25.743696,1.96528],[5.994224,25.157536,-3.014528],[5.421536,24.316256,-2.017488],[6.329696,24.788897,-0.730288],[5.423008,23.630257,-0.837184],[5.800592,22.576977,2.774911],[6.795856,25.566977,0.140912],[7.009728,26.440975,-0.425136],[6.651888,26.913296,-3.123232],[3.146176,22.746016,-4.1052],[5.396704,38.443775,10.610491],[4.281072,37.920498,8.192231],[6.053968,36.757378,8.295783],[5.11016,36.921375,4.527448],[-4.034384,25.850416,-3.549264],[-4.869776,25.599537,-1.719568],[-4.640672,25.870735,-0.94848],[-5.023168,26.603296,0.449872],[-6.016144,25.461376,0.916256],[-5.580464,27.916817,-1.421101],[3.5136,21.368015,-2.05992],[-5.657728,28.574017,-1.98686],[-4.7068,27.240736,0.483856],[-4.327072,28.650017,-5.255788],[-6.023856,28.310736,-1.654556],[-6.14848,28.605936,-1.088204],[-8.505456,28.319136,2.863332],[-5.934128,29.800177,-0.57862],[-5.521456,31.381935,-0.387436],[-6.578512,28.330656,1.05994],[-6.39144,27.600576,1.763524],[3.0816,23.370096,-5.204096],[-7.35704,28.715857,4.6113],[-6.820816,29.656416,1.958516],[6.651888,26.913296,-3.123232],[7.009728,26.440975,-0.425136],[7.212128,26.076336,-1.19592],[7.295952,26.280256,0.26704],[7.808336,25.513857,1.596272],[7.850288,25.615776,2.32776],[8.76632,25.029856,4.533681],[8.294736,26.239216,2.984048],[4.193712,23.635696,-3.96456],[8.184944,27.527056,1.579635],[5.800592,22.576977,2.774911],[6.407616,24.900175,0.996624],[6.795856,25.566977,0.140912],[5.59664,25.385056,1.106096],[5.858688,24.644016,-0.225888],[4.224528,22.935295,1.710688],[4.29016,22.807377,0.884416],[2.867824,21.459057,2.446815],[3.956496,22.722977,0.060256],[1.865664,23.482576,-5.015648],[5.421536,24.316256,-2.017488],[5.423008,23.630257,-0.837184],[6.407616,24.900175,0.996624],[6.651888,26.913296,-3.123232],[5.181856,26.212015,-3.586432],[5.028464,27.721296,-4.352432],[4.23624,27.936577,-4.728956],[4.392512,25.215696,-5.372336],[4.385136,24.361776,-2.67432],[4.16856,23.683617,-4.07],[3.033664,20.771696,-1.574596],[4.442736,21.464895,-0.547392],[5.29912,23.607697,-2.088496],[5.994224,25.157536,-3.014528],[2.647472,37.978977,4.426808],[4.281072,37.920498,8.192231],[1.24128,32.604015,6.741892],[3.743536,36.526577,9.574919],[5.396704,38.443775,10.610491],[6.053968,36.757378,8.295783],[3.94904,31.402008,6.564916],[-3.1816,31.479568,4.066228],[3.0816,23.370096,-5.204096],[6.642064,34.504257,4.86036],[4.265424,29.349529,5.859284],[-2.354496,36.503777,4.355944],[-4.846176,33.571938,2.969687],[-3.545936,36.000656,4.387272],[-5.177232,34.694176,5.540439],[-5.450832,34.280174,2.859766],[-4.483104,34.488815,-0.401032],[-6.188304,32.644817,2.532036],[-5.521456,31.381935,-0.387436],[3.0816,23.370096,-5.204096],[-6.422576,31.401377,2.518884],[-7.202672,31.378328,7.221892],[-5.943952,32.514896,4.611988],[-8.076736,32.290096,3.17434],[-6.686432,32.587536,1.991524],[-6.736832,31.627695,1.006276],[-5.413792,33.241936,0.681588],[-5.514752,31.322256,-1.288892],[-4.319792,31.451536,-3.768812],[-6.03368,29.947136,-2.22694],[1.336816,25.615303,-6.777071],[-5.934128,29.800177,-0.57862],[-8.505456,28.319136,2.863332],[-6.023856,28.310736,-1.654556],[-4.327072,28.650017,-5.255788],[-5.767376,30.716576,-3.02334],[-6.893584,29.925856,-1.763724],[-6.173392,28.892576,-2.879884],[-8.053296,29.523697,-0.642188],[6.651888,26.913296,-3.123232],[7.212128,26.076336,-1.19592],[3.000816,25.205864,-6.452991],[8.207392,28.406977,-2.661244],[8.38192,27.276896,-0.906592],[8.61824,30.985216,0.221348],[8.184944,27.527056,1.579635],[8.31736,26.130337,1.735024],[8.294736,26.239216,2.984048],[8.76632,25.029856,4.533681],[7.808336,25.513857,1.596272],[-4.7068,27.240736,0.483856],[-5.4224,29.114656,-0.073308],[1.290432,28.629543,-7.858476],[-3.755536,26.961697,-0.548672],[-3.959568,28.352177,-1.172972],[-4.034384,25.850416,-3.549264],[-3.510528,27.173136,-4.891951],[-5.1424,26.754816,-2.244656],[-4.327072,28.650017,-5.255788],[-5.657728,28.574017,-1.98686],[-5.580464,27.916817,-1.421101],[-6.016144,25.461376,0.916256],[-4.869776,25.599537,-1.719568],[4.392512,25.215696,-5.372336],[3.146176,22.746016,-4.1052],[3.033664,20.771696,-1.574596],[2.867408,23.294815,-3.919712],[1.865664,23.482576,-5.015648],[1.336816,25.615303,-6.777071],[2.451888,26.234896,-5.752287],[1.433424,28.986336,-5.791436],[3.055056,28.464417,-5.57638],[4.23624,27.936577,-4.728956],[4.392512,25.215696,-5.372336],[3.906752,27.971224,-7.269612],[4.193712,23.635696,-3.96456],[3.5136,21.368015,-2.05992],[4.265424,29.349529,5.859284],[3.466656,26.729528,8.408211],[0.247408,28.120089,6.61858],[1.789456,25.636408,9.745664],[2.637152,23.830168,12.063343],[2.613472,25.198729,8.545967],[3.521056,25.926088,7.671025],[2.131328,25.911848,6.987825],[2.4532,32.528255,-6.914892],[3.769344,25.980255,5.350848],[1.867632,26.384808,5.892352],[5.808704,25.634735,3.086768],[3.769344,25.980255,5.350848],[4.983152,25.694576,5.546529],[3.708784,25.904568,6.340337],[2.69632,24.179688,9.994176],[6.282336,28.057129,5.895764],[7.714752,31.159857,3.755988],[4.265424,29.349529,5.859284],[-0.431648,32.773216,-6.76734],[7.579792,31.276728,7.017396],[5.805024,30.595289,7.449572],[7.560864,33.411938,10.493639],[6.969248,33.285538,6.8617],[6.642064,34.504257,4.86036],[1.24128,32.604015,6.741892],[0.247408,28.120089,6.61858],[-0.040944,33.151455,7.615844],[-0.619536,31.932249,8.490243],[-0.60168,34.693855,10.296519],[-1.517456,29.281864,-7.169116],[-1.580224,32.784737,7.91962],[-2.872704,30.171616,5.403988],[-3.216272,29.120888,7.292132],[-0.877904,28.191528,7.69506],[-4.631008,27.286407,11.571107],[-2.625472,26.866808,7.482032],[-3.573056,27.707537,4.865905],[-1.898976,26.992409,6.069248],[4.25528,25.056959,-3.208016],[-0.911584,27.061544,-6.797744],[-0.62224,26.419144,-6.496239],[0.71848,23.986176,-5.101552],[1.64688,23.696575,-5.442656],[2.03144,22.101696,-3.665184],[-0.167136,34.921375,-5.185016],[-2.496256,33.067455,-5.996252],[-2.682752,32.397617,-5.884716],[-2.976592,29.375704,-6.447964],[-2.528544,26.924263,-6.029552],[4.25528,24.042688,-3.185728],[-3.19792,26.621376,-5.261872],[-2.817712,25.248495,-4.833424],[-3.297072,25.648176,-4.271232],[-2.76576,23.861296,-3.436512],[-3.510528,27.173136,-4.891951],[-4.327072,28.650017,-5.255788],[-4.85912,28.954737,-5.0167],[-5.256704,30.704657,-3.922604],[-4.319792,31.451536,-3.768812],[-5.767376,30.716576,-3.02334],[4.25528,31.500481,4.066228],[-6.575728,29.887297,-2.201612],[-6.893584,29.925856,-1.763724],[-8.053296,29.523697,-0.642188],[-6.464032,29.199936,-2.688236],[-6.173392,28.892576,-2.879884],[-8.076736,32.290096,3.17434],[-6.736832,31.627695,1.006276],[-6.3308,32.009296,-0.039788],[-4.702624,32.085377,-3.38102],[-5.514752,31.322256,-1.288892],[4.25528,31.490721,3.225764],[-2.524368,34.373775,-4.223113],[-4.64944,33.611378,-1.893052],[-2.501904,35.986897,-2.158888],[-4.483104,34.488815,-0.401032],[-2.294512,36.967457,0.655064],[-4.564624,35.427135,3.312328],[-5.450832,34.280174,2.859766],[-5.177232,34.694176,5.540439],[-3.545936,36.000656,4.387272],[-2.354496,36.503777,4.355944]],"uvs":[[0.936141,0.598759],[0.936139,0.595384],[0.939959,0.606878],[0.932447,0.598966],[0.931831,0.597411],[0.93071,0.598351],[0.929963,0.598546],[0.928154,0.596828],[0.928292,0.599196],[0.929029,0.600879],[0.929794,0.602571],[0.931121,0.603741],[0.931413,0.603816],[0.940001,0.595331],[0.93145,0.603822],[0.931439,0.603771],[0.931407,0.603757],[0.931448,0.603743],[0.926949,0.595331],[0.926941,0.597378],[0.926831,0.599852],[0.927695,0.601367],[0.92856,0.603184],[0.929072,0.604372],[0.946374,0.624733],[0.928399,0.605869],[0.928113,0.608178],[0.926752,0.610154],[0.928334,0.61096],[0.926535,0.602132],[0.92735,0.603653],[0.927924,0.604795],[0.927502,0.605465],[0.926766,0.605323],[0.926082,0.604291],[0.945456,0.62335],[0.926133,0.602829],[0.926098,0.602896],[0.92609,0.602912],[0.926044,0.602941],[0.926084,0.602916],[0.925946,0.603152],[0.924799,0.601669],[0.924624,0.602059],[0.924458,0.601391],[0.923495,0.600755],[0.946374,0.622219],[0.923954,0.60209],[0.924681,0.605002],[0.925038,0.605412],[0.92567,0.606584],[0.927333,0.606098],[0.925577,0.607092],[0.926273,0.607386],[0.924173,0.605286],[0.92394,0.605585],[0.923466,0.605455],[0.928007,0.623379],[0.922961,0.605666],[0.924277,0.60622],[0.924017,0.606452],[0.925205,0.607035],[0.926267,0.608994],[0.924744,0.608889],[0.925063,0.608615],[0.923339,0.608734],[0.924801,0.6082],[0.924387,0.608083],[0.929112,0.622597],[0.926728,0.608334],[0.927479,0.605973],[0.927161,0.605713],[0.927112,0.605719],[0.927112,0.605666],[0.927144,0.605617],[0.927104,0.60566],[0.926943,0.60551],[0.926831,0.611508],[0.926807,0.613509],[0.929112,0.623567],[0.946981,0.601545],[0.946916,0.604102],[0.945917,0.602961],[0.946325,0.603777],[0.945131,0.599667],[0.946981,0.599675],[0.944077,0.600898],[0.94415,0.602616],[0.946928,0.59779],[0.944063,0.598424],[0.945082,0.616577],[0.944116,0.598826],[0.944485,0.599756],[0.94387,0.600563],[0.946358,0.595632],[0.946953,0.595331],[0.945929,0.59643],[0.944162,0.596712],[0.930936,0.613545],[0.931531,0.615044],[0.930207,0.615879],[0.945409,0.616319],[0.932124,0.617371],[0.931858,0.613543],[0.933612,0.614514],[0.930426,0.613759],[0.933407,0.615255],[0.933462,0.617353],[0.933612,0.618823],[0.932053,0.618624],[0.93,0.619027],[0.941853,0.61318],[0.939559,0.595337],[0.945409,0.618044],[0.943385,0.611888],[0.943045,0.614528],[0.944469,0.612997],[0.943427,0.610444],[0.945419,0.611768],[0.943559,0.609098],[0.9452,0.609685],[0.945419,0.606913],[0.942725,0.608359],[0.941658,0.609133],[0.945417,0.616283],[0.943001,0.605765],[0.943001,0.60636],[0.941413,0.605879],[0.941492,0.606297],[0.940038,0.60594],[0.925954,0.623279],[0.925893,0.622249],[0.926214,0.62231],[0.925656,0.620716],[0.926214,0.62057],[0.945082,0.616015],[0.950064,0.605042],[0.95071,0.605177],[0.95071,0.605837],[0.951366,0.605116],[0.951366,0.606454],[0.935964,0.624516],[0.935603,0.623415],[0.936015,0.623439],[0.935332,0.621987],[0.936015,0.621752],[0.945417,0.614565],[0.951384,0.61979],[0.951595,0.621281],[0.951093,0.620972],[0.951595,0.622832],[0.950533,0.622186],[0.939148,0.623752],[0.938429,0.622312],[0.939148,0.621287],[0.937743,0.621378],[0.939033,0.619717],[0.946526,0.605378],[0.945456,0.621019],[0.946118,0.620127],[0.946709,0.620763],[0.946811,0.620414],[0.947525,0.622182],[0.94742,0.620688],[0.947525,0.619224],[0.925619,0.62057],[0.925566,0.622851],[0.924703,0.622438],[0.950027,0.605042],[0.925619,0.623951],[0.924323,0.622759],[0.951459,0.614439],[0.949999,0.61291],[0.951459,0.612885],[0.950576,0.612404],[0.951386,0.610796],[0.939425,0.616754],[0.939601,0.615012],[0.940257,0.617773],[0.948953,0.606038],[0.941602,0.615657],[0.941445,0.617747],[0.941602,0.620521],[0.950651,0.599708],[0.94917,0.598716],[0.950511,0.597778],[0.949946,0.59779],[0.950651,0.595331],[0.924232,0.623974],[0.923599,0.623023],[0.950027,0.606397],[0.924287,0.621953],[0.922961,0.621567],[0.924287,0.62057],[0.951662,0.619419],[0.950299,0.619191],[0.951595,0.618141],[0.951134,0.618034],[0.951662,0.616998],[0.93,0.623072],[0.930731,0.622759],[0.927971,0.619394],[0.930645,0.623441],[0.932187,0.622186],[0.932187,0.624246],[0.935296,0.623076],[0.93411,0.62084],[0.935202,0.620732],[0.933649,0.61951],[0.935296,0.619094],[0.936074,0.619094],[0.936013,0.620361],[0.92791,0.621049],[0.935668,0.620162],[0.936074,0.621713],[0.935332,0.621715],[0.943831,0.622197],[0.943831,0.623338],[0.942623,0.622566],[0.942615,0.623098],[0.941658,0.623111],[0.951898,0.614837],[0.951898,0.616848],[0.936145,0.603046],[0.927122,0.620781],[0.95163,0.615052],[0.951384,0.616726],[0.95089,0.61596],[0.950767,0.616797],[0.950299,0.616961],[0.950265,0.619754],[0.949455,0.618027],[0.950243,0.616649],[0.94981,0.616397],[0.950265,0.614837],[0.927971,0.623039],[0.949292,0.615863],[0.948866,0.616222],[0.952093,0.606663],[0.951646,0.605532],[0.952135,0.60556],[0.951455,0.604208],[0.952135,0.604074],[0.948866,0.621472],[0.950496,0.61979],[0.949422,0.621549],[0.926322,0.621074],[0.95044,0.621088],[0.950496,0.62322],[0.943488,0.603024],[0.943446,0.604555],[0.943358,0.604508],[0.943488,0.606738],[0.943277,0.605181],[0.929906,0.62241],[0.928007,0.62256],[0.929502,0.621256],[0.951883,0.606826],[0.928462,0.620933],[0.929906,0.619394],[0.935852,0.619057],[0.934096,0.618943],[0.93558,0.61699],[0.933649,0.61687],[0.93463,0.615954],[0.935852,0.613543],[0.946079,0.605457],[0.94649,0.606397],[0.952277,0.606807],[0.945428,0.605788],[0.945139,0.606295],[0.943872,0.606318],[0.94649,0.604137],[0.945417,0.605012],[0.94387,0.606312],[0.951002,0.598394],[0.951705,0.598172],[0.95076,0.599612],[0.951678,0.599894],[0.951272,0.60767],[0.950685,0.600301],[0.951705,0.600796],[0.933954,0.600739],[0.934295,0.599996],[0.933348,0.600666],[0.95034,0.600798],[0.949721,0.600286],[0.95019,0.600368],[0.950147,0.599937],[0.94917,0.599779],[0.952277,0.609321],[0.95034,0.599744],[0.947735,0.6148],[0.94704,0.614201],[0.947253,0.614031],[0.946522,0.613661],[0.946877,0.613174],[0.945789,0.613407],[0.946319,0.612018],[0.947663,0.613923],[0.947475,0.613005],[0.951764,0.598136],[0.947079,0.611764],[0.946561,0.609922],[0.9472,0.61056],[0.9472,0.61017],[0.947282,0.608066],[0.947536,0.608416],[0.947735,0.606913],[0.946939,0.607973],[0.946213,0.609047],[0.945456,0.610981],[0.950685,0.596438],[0.951455,0.603424],[0.951853,0.601919],[0.951823,0.604037],[0.952111,0.601836],[0.952263,0.603635],[0.952263,0.601895],[0.952076,0.600928],[0.944376,0.622546],[0.944731,0.621151],[0.944735,0.623222],[0.951764,0.595508],[0.945072,0.621053],[0.945261,0.62284],[0.945261,0.621155],[0.945168,0.620042],[0.93,0.621086],[0.930678,0.62072],[0.930574,0.622152],[0.931171,0.620966],[0.932236,0.622],[0.932028,0.62085],[0.939985,0.598757],[0.950966,0.595331],[0.932236,0.619063],[0.948013,0.619224],[0.948801,0.619508],[0.948376,0.621065],[0.948801,0.6211],[0.948758,0.622473],[0.948135,0.621126],[0.947562,0.619735],[0.951236,0.608507],[0.951236,0.610759],[0.948801,0.623326],[0.950496,0.608292],[0.950149,0.609013],[0.949777,0.608696],[0.949828,0.606807],[0.951136,0.607416],[0.944339,0.62216],[0.942087,0.620732],[0.942456,0.620726],[0.941658,0.620365],[0.9423,0.62017],[0.947704,0.623037],[0.944339,0.620042],[0.943793,0.6207],[0.941602,0.622913],[0.940475,0.621898],[0.940751,0.621403],[0.939311,0.620982],[0.940491,0.620992],[0.941602,0.620558],[0.941368,0.621701],[0.949962,0.614118],[0.948801,0.622509],[0.947771,0.613974],[0.949924,0.612827],[0.948939,0.6125],[0.949962,0.610796],[0.948346,0.611771],[0.94781,0.61162],[0.951418,0.600928],[0.951081,0.602876],[0.950429,0.602439],[0.95083,0.60288],[0.947278,0.622851],[0.950017,0.602981],[0.950492,0.603521],[0.951418,0.604581],[0.936139,0.622603],[0.936165,0.621866],[0.937008,0.621762],[0.936466,0.621228],[0.937706,0.619717],[0.937654,0.621841],[0.937706,0.622388],[0.947144,0.622873],[0.936695,0.623397],[0.923818,0.598402],[0.924959,0.599054],[0.924218,0.599766],[0.925818,0.60077],[0.926521,0.619358],[0.926523,0.618322],[0.926846,0.618034],[0.927157,0.617126],[0.926322,0.616862],[0.946985,0.624152],[0.928009,0.616141],[0.928367,0.615909],[0.927565,0.617178],[0.927217,0.617276],[0.928385,0.615627],[0.928692,0.615505],[0.929963,0.613543],[0.929311,0.615751],[0.929963,0.616271],[0.928655,0.617505],[0.947144,0.622219],[0.928351,0.617932],[0.929313,0.619242],[0.929427,0.617796],[0.933141,0.623291],[0.933038,0.621859],[0.933358,0.622182],[0.933082,0.621463],[0.933358,0.620669],[0.933216,0.62032],[0.933358,0.619063],[0.946408,0.62269],[0.932824,0.619987],[0.932272,0.620806],[0.942928,0.605678],[0.942737,0.604149],[0.942832,0.603562],[0.942727,0.603024],[0.942247,0.604131],[0.942609,0.604841],[0.941039,0.604986],[0.941321,0.605313],[0.952123,0.610796],[0.940038,0.605453],[0.941514,0.605731],[0.943066,0.6057],[0.94324,0.605012],[0.942241,0.604236],[0.94324,0.603048],[0.949741,0.607707],[0.948886,0.607973],[0.948764,0.607083],[0.948317,0.606913],[0.939987,0.599198],[0.952123,0.613141],[0.947771,0.60829],[0.948977,0.609092],[0.9482,0.60926],[0.949741,0.610759],[0.949601,0.609331],[0.949524,0.608347],[0.945048,0.620005],[0.943049,0.619439],[0.945048,0.616961],[0.942767,0.618456],[0.951496,0.61092],[0.941658,0.619256],[0.94166,0.617737],[0.944097,0.615643],[0.941689,0.615635],[0.944579,0.614565],[0.940082,0.614299],[0.940531,0.612236],[0.940564,0.613834],[0.941622,0.613202],[0.940937,0.611974],[0.951595,0.611565],[0.939946,0.61052],[0.939703,0.612483],[0.938472,0.61136],[0.93913,0.612786],[0.940251,0.614975],[0.94031,0.613369],[0.941622,0.608142],[0.94095,0.608826],[0.940308,0.608513],[0.940316,0.609608],[0.930442,0.610715],[0.939035,0.608982],[0.937765,0.60964],[0.937286,0.610991],[0.937711,0.611742],[0.937229,0.614041],[0.936525,0.611472],[0.936139,0.609437],[0.937721,0.608716],[0.937755,0.607754],[0.936963,0.608113],[0.92965,0.610712],[0.937936,0.606913],[0.947016,0.603999],[0.947696,0.603113],[0.947982,0.60459],[0.948409,0.603609],[0.949981,0.604821],[0.949503,0.602941],[0.949124,0.602289],[0.949702,0.60195],[0.949981,0.600928],[0.930735,0.608931],[0.948772,0.602041],[0.939388,0.61885],[0.938706,0.61968],[0.938929,0.618271],[0.938291,0.618744],[0.937838,0.617018],[0.936866,0.617298],[0.937865,0.616017],[0.936139,0.616785],[0.937191,0.615294],[0.929707,0.609297],[0.937641,0.615278],[0.939388,0.615012],[0.938507,0.616212],[0.948187,0.597041],[0.949136,0.595331],[0.948382,0.597529],[0.949032,0.598272],[0.949136,0.599574],[0.948443,0.599555],[0.948419,0.600892],[0.930499,0.607106],[0.94786,0.600477],[0.947312,0.600116],[0.947552,0.59892],[0.947712,0.597963],[0.947016,0.596611],[0.948831,0.614837],[0.948703,0.616718],[0.946926,0.615838],[0.948027,0.617788],[0.948831,0.619187],[0.928564,0.611027],[0.947241,0.617997],[0.946496,0.618082],[0.94662,0.617294],[0.945456,0.61754],[0.946187,0.616837],[0.943815,0.599381],[0.943153,0.598071],[0.943752,0.598142],[0.943222,0.597533],[0.943833,0.595331],[0.928608,0.609606],[0.941465,0.59801],[0.940038,0.599494],[0.942296,0.599608],[0.940783,0.600987],[0.941768,0.600802],[0.941067,0.602987],[0.942625,0.602077],[0.943833,0.602118],[0.923367,0.618793],[0.924323,0.616608],[0.936671,0.606807],[0.929136,0.607646],[0.92408,0.619264],[0.924801,0.618848],[0.924971,0.620533],[0.925501,0.619037],[0.926285,0.617189],[0.926153,0.616056],[0.924833,0.615968],[0.926285,0.613543],[0.924417,0.614924],[0.922961,0.614591],[0.929516,0.605378],[0.923773,0.615418],[0.930719,0.60488],[0.932065,0.606356],[0.931951,0.6078],[0.931886,0.608273],[0.931571,0.610178],[0.930962,0.610379],[0.931309,0.611842],[0.930191,0.603777],[0.936147,0.606797],[0.931405,0.60422],[0.931752,0.60433],[0.932804,0.605719],[0.933724,0.606939],[0.93436,0.606706],[0.934945,0.607459],[0.935207,0.606996],[0.936102,0.607932],[0.934455,0.606243],[0.933897,0.60529],[0.940001,0.603044],[0.933962,0.604925],[0.933726,0.603791],[0.933149,0.603513],[0.934138,0.603379],[0.934993,0.603304],[0.935219,0.603073],[0.936102,0.602656],[0.935068,0.603804],[0.935052,0.60407],[0.935196,0.599407],[0.939995,0.603479],[0.934739,0.600908],[0.934193,0.601342],[0.933042,0.603103],[0.934057,0.602327],[0.931374,0.603241],[0.932609,0.602065],[0.930859,0.602031],[0.932282,0.601089],[0.9303,0.600621],[0.931527,0.598845]],"polys":[[[0,0,0],[1,0,1],[112,0,112],[112,0,112]],[[223,1,223],[0,1,0],[334,1,334],[445,1,445]],[[554,112,556],[565,112,578],[223,112,223],[576,112,589]],[[554,112,556],[576,112,589],[587,112,600],[587,112,600]],[[587,112,600],[2,112,2],[554,112,556],[554,112,556]],[[13,0,13],[334,0,334],[0,0,0],[112,0,112]],[[445,1,445],[576,1,589],[223,1,223],[223,1,223]],[[24,223,24],[35,223,35],[46,223,46],[46,223,46]],[[57,334,57],[68,334,68],[79,334,79],[79,334,79]],[[90,445,90],[101,445,101],[113,445,113],[113,445,113]],[[124,550,124],[135,550,135],[146,550,146],[146,550,146]],[[157,561,157],[168,572,168],[179,583,179],[179,583,179]],[[168,572,168],[190,2,190],[179,583,179],[179,583,179]],[[201,13,201],[212,24,212],[224,35,224],[224,35,224]],[[212,24,212],[190,46,235],[224,35,224],[224,35,224]],[[224,35,224],[190,46,235],[235,57,246],[235,57,246]],[[246,68,257],[257,79,268],[268,90,279],[268,90,279]],[[257,79,268],[279,101,290],[268,90,279],[268,90,279]],[[290,113,301],[301,124,312],[312,135,323],[312,135,323]],[[301,124,312],[323,146,335],[312,135,323],[312,135,323]],[[335,157,346],[346,168,357],[357,179,368],[357,179,368]],[[346,168,357],[368,190,379],[357,179,368],[357,179,368]],[[379,201,390],[390,212,401],[401,224,412],[401,224,412]],[[390,212,401],[412,235,423],[401,224,412],[401,224,412]],[[423,246,434],[434,257,446],[446,268,457],[446,268,457]],[[434,257,446],[379,279,468],[446,268,457],[446,268,457]],[[423,290,479],[457,301,490],[468,312,501],[468,312,501]],[[457,301,490],[479,323,512],[468,312,501],[468,312,501]],[[468,312,501],[479,323,512],[490,335,523],[490,335,523]],[[412,346,534],[501,357,545],[457,301,490],[457,301,490]],[[457,301,490],[501,357,545],[479,323,512],[479,323,512]],[[501,357,545],[512,368,557],[479,323,512],[479,323,512]],[[479,323,512],[512,368,557],[490,335,523],[490,335,523]],[[512,368,557],[523,379,568],[490,335,523],[490,335,523]],[[523,379,568],[534,390,570],[490,335,523],[490,335,523]],[[534,390,570],[545,401,571],[490,335,523],[490,335,523]],[[490,335,523],[545,401,571],[468,312,501],[468,312,501]],[[545,401,571],[555,412,572],[468,312,501],[468,312,501]],[[555,412,572],[556,423,573],[468,312,501],[468,312,501]],[[556,423,573],[557,434,574],[468,312,501],[468,312,501]],[[468,312,501],[557,434,574],[558,446,575],[558,446,575]],[[557,434,574],[559,457,576],[558,446,575],[558,446,575]],[[523,379,568],[560,468,577],[534,390,570],[534,390,570]],[[560,468,577],[561,479,579],[534,390,570],[534,390,570]],[[561,479,579],[562,490,580],[534,390,570],[534,390,570]],[[562,490,580],[563,501,581],[534,390,570],[534,390,570]],[[534,390,570],[563,501,581],[545,401,571],[545,401,571]],[[545,401,571],[563,501,581],[564,512,582],[564,512,582]],[[563,501,581],[566,523,583],[564,512,582],[564,512,582]],[[564,512,582],[566,523,583],[567,534,584],[567,534,584]],[[566,523,583],[568,545,585],[567,534,584],[567,534,584]],[[567,534,584],[568,545,585],[569,551,586],[569,551,586]],[[568,545,585],[566,523,583],[570,552,587],[570,552,587]],[[570,552,587],[566,523,583],[571,553,588],[571,553,588]],[[566,523,583],[563,501,581],[571,553,588],[571,553,588]],[[571,553,588],[563,501,581],[572,554,590],[572,554,590]],[[572,554,590],[563,501,581],[573,555,591],[573,555,591]],[[563,501,581],[562,490,580],[573,555,591],[573,555,591]],[[562,490,580],[574,556,592],[573,555,591],[573,555,591]],[[574,556,592],[575,557,593],[573,555,591],[573,555,591]],[[573,555,591],[575,557,593],[577,558,594],[577,558,594]],[[575,557,593],[578,559,595],[577,558,594],[577,558,594]],[[578,559,595],[579,560,596],[577,558,594],[577,558,594]],[[577,558,594],[579,560,596],[580,562,597],[580,562,597]],[[579,560,596],[581,563,598],[580,562,597],[580,562,597]],[[581,563,598],[571,553,588],[580,562,597],[580,562,597]],[[571,553,588],[572,554,590],[580,562,597],[580,562,597]],[[580,562,597],[572,554,590],[577,558,594],[577,558,594]],[[577,558,594],[572,554,590],[573,555,591],[573,555,591]],[[582,564,599],[583,565,601],[584,566,602],[584,566,602]],[[584,566,602],[583,565,601],[585,567,603],[585,567,603]],[[583,565,601],[586,568,604],[585,567,603],[585,567,603]],[[586,568,604],[574,556,592],[585,567,603],[585,567,603]],[[574,556,592],[562,490,580],[585,567,603],[585,567,603]],[[562,490,580],[588,569,605],[585,567,603],[585,567,603]],[[585,567,603],[588,569,605],[589,570,606],[589,570,606]],[[588,569,605],[590,571,607],[589,570,606],[589,570,606]],[[589,570,606],[590,571,607],[591,573,608],[591,573,608]],[[590,571,607],[592,574,609],[591,573,608],[591,573,608]],[[592,574,609],[593,575,610],[591,573,608],[591,573,608]],[[591,573,608],[593,575,610],[594,576,3],[594,576,3]],[[594,576,3],[593,575,610],[595,577,4],[595,577,4]],[[595,577,4],[593,575,610],[596,578,5],[596,578,5]],[[593,575,610],[592,574,609],[596,578,5],[596,578,5]],[[592,574,609],[597,579,6],[596,578,5],[596,578,5]],[[3,580,7],[597,579,6],[4,581,8],[4,581,8]],[[597,579,6],[592,574,609],[4,581,8],[4,581,8]],[[4,581,8],[592,574,609],[5,582,9],[5,582,9]],[[592,574,609],[590,571,607],[5,582,9],[5,582,9]],[[5,582,9],[590,571,607],[6,584,10],[6,584,10]],[[590,571,607],[588,569,605],[6,584,10],[6,584,10]],[[6,584,10],[588,569,605],[560,468,577],[560,468,577]],[[588,569,605],[7,585,11],[560,468,577],[560,468,577]],[[560,468,577],[7,585,11],[561,479,579],[561,479,579]],[[7,585,11],[8,586,12],[561,479,579],[561,479,579]],[[561,479,579],[8,586,12],[562,490,580],[562,490,580]],[[562,490,580],[8,586,12],[9,587,14],[9,587,14]],[[9,587,14],[8,586,12],[10,588,15],[10,588,15]],[[8,586,12],[11,589,16],[10,588,15],[10,588,15]],[[10,588,15],[11,589,16],[12,590,17],[12,590,17]],[[11,589,16],[588,569,605],[12,590,17],[12,590,17]],[[14,591,18],[3,580,7],[15,592,19],[15,592,19]],[[3,580,7],[4,581,8],[15,592,19],[15,592,19]],[[15,592,19],[4,581,8],[16,593,20],[16,593,20]],[[4,581,8],[5,582,9],[16,593,20],[16,593,20]],[[16,593,20],[5,582,9],[17,3,21],[17,3,21]],[[5,582,9],[6,584,10],[17,3,21],[17,3,21]],[[17,3,21],[6,584,10],[18,4,22],[18,4,22]],[[6,584,10],[560,468,577],[18,4,22],[18,4,22]],[[18,4,22],[560,468,577],[19,5,23],[19,5,23]],[[560,468,577],[523,379,568],[19,5,23],[19,5,23]],[[19,5,23],[523,379,568],[20,6,25],[20,6,25]],[[523,379,568],[512,368,557],[20,6,25],[20,6,25]],[[20,6,25],[512,368,557],[21,7,26],[21,7,26]],[[512,368,557],[501,357,545],[21,7,26],[21,7,26]],[[21,7,26],[501,357,545],[22,8,27],[22,8,27]],[[501,357,545],[23,9,28],[22,8,27],[22,8,27]],[[16,593,20],[17,3,21],[25,10,29],[25,10,29]],[[25,10,29],[17,3,21],[26,11,30],[26,11,30]],[[17,3,21],[18,4,22],[26,11,30],[26,11,30]],[[26,11,30],[18,4,22],[27,12,31],[27,12,31]],[[18,4,22],[19,5,23],[27,12,31],[27,12,31]],[[19,5,23],[20,6,25],[27,12,31],[27,12,31]],[[20,6,25],[28,14,32],[27,12,31],[27,12,31]],[[28,14,32],[29,15,33],[27,12,31],[27,12,31]],[[27,12,31],[29,15,33],[26,11,30],[26,11,30]],[[29,15,33],[30,16,34],[26,11,30],[26,11,30]],[[26,11,30],[30,16,34],[31,17,36],[31,17,36]],[[30,16,34],[32,18,37],[31,17,36],[31,17,36]],[[32,18,37],[33,19,38],[31,17,36],[31,17,36]],[[31,17,36],[33,19,38],[34,20,39],[34,20,39]],[[33,19,38],[36,21,40],[34,20,39],[34,20,39]],[[34,20,39],[36,21,40],[37,22,41],[37,22,41]],[[37,22,41],[25,10,29],[34,20,39],[34,20,39]],[[34,20,39],[25,10,29],[31,17,36],[31,17,36]],[[25,10,29],[26,11,30],[31,17,36],[31,17,36]],[[25,10,29],[37,22,41],[38,23,42],[38,23,42]],[[37,22,41],[39,25,43],[38,23,42],[38,23,42]],[[38,23,42],[39,25,43],[40,26,44],[40,26,44]],[[40,26,44],[39,25,43],[41,27,45],[41,27,45]],[[41,27,45],[39,25,43],[42,28,47],[42,28,47]],[[42,28,47],[39,25,43],[43,29,48],[43,29,48]],[[39,25,43],[37,22,41],[43,29,48],[43,29,48]],[[37,22,41],[30,16,34],[43,29,48],[43,29,48]],[[43,29,48],[30,16,34],[44,30,49],[44,30,49]],[[30,16,34],[29,15,33],[44,30,49],[44,30,49]],[[44,30,49],[29,15,33],[45,31,50],[45,31,50]],[[29,15,33],[47,32,51],[45,31,50],[45,31,50]],[[45,31,50],[47,32,51],[48,33,52],[48,33,52]],[[47,32,51],[49,34,53],[48,33,52],[48,33,52]],[[43,29,48],[44,30,49],[50,36,54],[50,36,54]],[[44,30,49],[51,37,55],[50,36,54],[50,36,54]],[[50,36,54],[51,37,55],[52,38,56],[52,38,56]],[[52,38,56],[51,37,55],[53,39,58],[53,39,58]],[[51,37,55],[54,40,59],[53,39,58],[53,39,58]],[[53,39,58],[54,40,59],[55,41,60],[55,41,60]],[[55,41,60],[54,40,59],[56,42,61],[56,42,61]],[[54,40,59],[45,31,50],[56,42,61],[56,42,61]],[[56,42,61],[45,31,50],[48,33,52],[48,33,52]],[[51,37,55],[44,30,49],[54,40,59],[54,40,59]],[[44,30,49],[45,31,50],[54,40,59],[54,40,59]],[[58,43,62],[59,44,63],[60,45,64],[60,45,64]],[[59,44,63],[61,47,65],[60,45,64],[60,45,64]],[[60,45,64],[61,47,65],[62,48,66],[62,48,66]],[[61,47,65],[63,49,67],[62,48,66],[62,48,66]],[[63,49,67],[48,33,52],[62,48,66],[62,48,66]],[[48,33,52],[49,34,53],[62,48,66],[62,48,66]],[[62,48,66],[49,34,53],[60,45,64],[60,45,64]],[[22,8,27],[58,43,62],[21,7,26],[21,7,26]],[[21,7,26],[58,43,62],[64,50,69],[64,50,69]],[[58,43,62],[60,45,64],[64,50,69],[64,50,69]],[[60,45,64],[49,34,53],[64,50,69],[64,50,69]],[[64,50,69],[49,34,53],[21,7,26],[21,7,26]],[[49,34,53],[47,32,51],[21,7,26],[21,7,26]],[[21,7,26],[47,32,51],[20,6,25],[20,6,25]],[[20,6,25],[47,32,51],[65,51,70],[65,51,70]],[[65,51,70],[47,32,51],[66,52,71],[66,52,71]],[[47,32,51],[67,53,72],[66,52,71],[66,52,71]],[[67,53,72],[69,54,73],[66,52,71],[66,52,71]],[[66,52,71],[69,54,73],[70,55,74],[70,55,74]],[[69,54,73],[71,56,75],[70,55,74],[70,55,74]],[[71,56,75],[72,58,76],[70,55,74],[70,55,74]],[[70,55,74],[72,58,76],[28,14,32],[28,14,32]],[[72,58,76],[29,15,33],[28,14,32],[28,14,32]],[[20,6,25],[65,51,70],[28,14,32],[28,14,32]],[[65,51,70],[66,52,71],[28,14,32],[28,14,32]],[[28,14,32],[66,52,71],[70,55,74],[70,55,74]],[[22,8,27],[23,9,28],[73,59,77],[73,59,77]],[[23,9,28],[74,60,78],[73,59,77],[73,59,77]],[[75,61,80],[76,62,81],[77,63,82],[77,63,82]],[[76,62,81],[78,64,83],[77,63,82],[77,63,82]],[[80,65,84],[81,66,85],[82,67,86],[82,67,86]],[[81,66,85],[75,61,80],[82,67,86],[82,67,86]],[[75,61,80],[77,63,82],[82,67,86],[82,67,86]],[[82,67,86],[77,63,82],[83,69,87],[83,69,87]],[[84,70,88],[81,66,85],[85,71,89],[85,71,89]],[[81,66,85],[80,65,84],[85,71,89],[85,71,89]],[[85,71,89],[80,65,84],[86,72,91],[86,72,91]],[[86,72,91],[80,65,84],[87,73,92],[87,73,92]],[[80,65,84],[82,67,86],[87,73,92],[87,73,92]],[[87,73,92],[82,67,86],[88,74,93],[88,74,93]],[[89,75,94],[91,76,95],[92,77,96],[92,77,96]],[[91,76,95],[84,70,88],[92,77,96],[92,77,96]],[[84,70,88],[85,71,89],[92,77,96],[92,77,96]],[[92,77,96],[85,71,89],[93,78,97],[93,78,97]],[[94,80,98],[95,81,99],[96,82,100],[96,82,100]],[[95,81,99],[97,83,102],[96,82,100],[96,82,100]],[[98,84,103],[99,85,104],[100,86,105],[100,86,105]],[[99,85,104],[102,87,106],[100,86,105],[100,86,105]],[[100,86,105],[102,87,106],[95,81,99],[95,81,99]],[[102,87,106],[103,88,107],[95,81,99],[95,81,99]],[[95,81,99],[103,88,107],[97,83,102],[97,83,102]],[[103,88,107],[104,89,108],[97,83,102],[97,83,102]],[[104,89,108],[105,91,109],[97,83,102],[97,83,102]],[[97,83,102],[105,91,109],[96,82,100],[96,82,100]],[[105,91,109],[106,92,110],[96,82,100],[96,82,100]],[[99,93,111],[107,94,114],[108,95,115],[108,95,115]],[[108,95,115],[107,94,114],[109,96,116],[109,96,116]],[[107,94,114],[94,97,117],[109,96,116],[109,96,116]],[[109,96,116],[94,97,117],[110,98,118],[110,98,118]],[[94,97,117],[111,99,119],[110,98,118],[110,98,118]],[[110,98,118],[111,99,119],[114,100,120],[114,100,120]],[[114,100,120],[111,99,119],[115,102,121],[115,102,121]],[[115,102,121],[111,99,119],[116,103,122],[116,103,122]],[[111,99,119],[117,104,123],[116,103,122],[116,103,122]],[[118,105,125],[119,106,126],[120,107,127],[120,107,127]],[[119,106,126],[121,108,128],[120,107,127],[120,107,127]],[[120,107,127],[121,108,128],[122,109,129],[122,109,129]],[[123,110,130],[125,111,131],[126,114,132],[126,114,132]],[[125,111,131],[127,115,133],[126,114,132],[126,114,132]],[[126,114,132],[127,115,133],[128,116,134],[128,116,134]],[[129,117,136],[130,118,137],[131,119,138],[131,119,138]],[[130,118,137],[132,120,139],[131,119,138],[131,119,138]],[[131,119,138],[132,120,139],[133,121,140],[133,121,140]],[[134,122,141],[136,123,142],[137,125,143],[137,125,143]],[[136,123,142],[138,126,144],[137,125,143],[137,125,143]],[[137,125,143],[138,126,144],[139,127,145],[139,127,145]],[[140,128,147],[141,129,148],[142,130,149],[142,130,149]],[[141,129,148],[143,131,150],[142,130,149],[142,130,149]],[[142,130,149],[143,131,150],[144,132,151],[144,132,151]],[[145,133,152],[147,134,153],[148,136,154],[148,136,154]],[[147,134,153],[149,137,155],[148,136,154],[148,136,154]],[[148,136,154],[149,137,155],[150,138,156],[150,138,156]],[[151,139,158],[152,140,159],[153,141,160],[153,141,160]],[[152,140,159],[154,142,161],[153,141,160],[153,141,160]],[[153,141,160],[154,142,161],[150,143,162],[150,143,162]],[[150,143,162],[154,142,161],[155,144,163],[155,144,163]],[[155,144,163],[154,142,161],[156,145,164],[156,145,164]],[[154,142,161],[152,140,159],[156,145,164],[156,145,164]],[[158,147,165],[159,148,166],[160,149,167],[160,149,167]],[[159,148,166],[161,150,169],[160,149,167],[160,149,167]],[[160,149,167],[161,150,169],[162,151,170],[162,151,170]],[[163,152,171],[164,153,172],[165,154,173],[165,154,173]],[[164,153,172],[166,155,174],[165,154,173],[165,154,173]],[[165,154,173],[166,155,174],[167,156,175],[167,156,175]],[[169,158,176],[170,159,177],[171,160,178],[171,160,178]],[[170,159,177],[163,161,180],[171,160,178],[171,160,178]],[[163,161,180],[172,162,181],[171,160,178],[171,160,178]],[[171,160,178],[172,162,181],[173,163,182],[173,163,182]],[[174,164,183],[175,165,184],[176,166,185],[176,166,185]],[[175,165,184],[177,167,186],[176,166,185],[176,166,185]],[[176,166,185],[177,167,186],[178,169,187],[178,169,187]],[[180,170,188],[181,171,189],[182,172,191],[182,172,191]],[[181,171,189],[183,173,192],[182,172,191],[182,172,191]],[[182,172,191],[183,173,192],[184,174,193],[184,174,193]],[[185,175,194],[186,176,195],[187,177,196],[187,177,196]],[[186,176,195],[188,178,197],[187,177,196],[187,177,196]],[[187,177,196],[188,178,197],[189,180,198],[189,180,198]],[[191,181,199],[192,182,200],[193,183,202],[193,183,202]],[[192,182,200],[194,184,203],[193,183,202],[193,183,202]],[[193,183,202],[194,184,203],[195,185,204],[195,185,204]],[[196,186,205],[197,187,206],[198,188,207],[198,188,207]],[[197,187,206],[199,189,208],[198,188,207],[198,188,207]],[[198,188,207],[199,189,208],[200,191,209],[200,191,209]],[[202,192,210],[203,193,211],[204,194,213],[204,194,213]],[[203,193,211],[205,195,214],[204,194,213],[204,194,213]],[[204,194,213],[205,195,214],[206,196,215],[206,196,215]],[[207,197,216],[208,198,217],[209,199,218],[209,199,218]],[[208,198,217],[210,200,219],[209,199,218],[209,199,218]],[[209,199,218],[210,200,219],[211,202,220],[211,202,220]],[[208,203,221],[213,204,222],[214,205,225],[214,205,225]],[[213,204,222],[215,206,226],[214,205,225],[214,205,225]],[[214,205,225],[215,206,226],[216,207,227],[216,207,227]],[[215,206,226],[217,208,228],[216,207,227],[216,207,227]],[[216,207,227],[217,208,228],[218,209,229],[218,209,229]],[[213,210,230],[219,211,231],[220,213,232],[220,213,232]],[[219,211,231],[221,214,233],[220,213,232],[220,213,232]],[[220,213,232],[221,214,233],[222,215,234],[222,215,234]],[[222,215,234],[221,214,233],[225,216,236],[225,216,236]],[[221,214,233],[219,211,231],[225,216,236],[225,216,236]],[[225,216,236],[219,211,231],[226,217,237],[226,217,237]],[[227,218,238],[228,219,239],[229,220,240],[229,220,240]],[[228,219,239],[230,221,241],[229,220,240],[229,220,240]],[[229,220,240],[230,221,241],[231,222,242],[231,222,242]],[[232,225,243],[233,226,244],[234,227,245],[234,227,245]],[[233,226,244],[236,228,247],[234,227,245],[234,227,245]],[[234,227,245],[236,228,247],[237,229,248],[237,229,248]],[[238,230,249],[239,231,250],[240,232,251],[240,232,251]],[[239,231,250],[241,233,252],[240,232,251],[240,232,251]],[[240,232,251],[241,233,252],[242,234,253],[242,234,253]],[[243,236,254],[244,237,255],[245,238,256],[245,238,256]],[[244,237,255],[247,239,258],[245,238,256],[245,238,256]],[[245,238,256],[247,239,258],[248,240,259],[248,240,259]],[[244,241,260],[249,242,261],[250,243,262],[250,243,262]],[[249,242,261],[251,244,263],[250,243,262],[250,243,262]],[[251,244,263],[252,245,264],[250,243,262],[250,243,262]],[[250,243,262],[252,245,264],[253,247,265],[253,247,265]],[[254,248,266],[255,249,267],[256,250,269],[256,250,269]],[[255,249,267],[258,251,270],[256,250,269],[256,250,269]],[[256,250,269],[258,251,270],[259,252,271],[259,252,271]],[[260,253,272],[254,248,266],[261,254,273],[261,254,273]],[[254,248,266],[256,250,269],[261,254,273],[261,254,273]],[[261,254,273],[256,250,269],[262,255,274],[262,255,274]],[[263,256,275],[264,258,276],[265,259,277],[265,259,277]],[[264,258,276],[266,260,278],[265,259,277],[265,259,277]],[[265,259,277],[266,260,278],[267,261,280],[267,261,280]],[[266,260,278],[269,262,281],[267,261,280],[267,261,280]],[[588,569,605],[11,589,16],[7,585,11],[7,585,11]],[[11,589,16],[8,586,12],[7,585,11],[7,585,11]],[[585,567,603],[589,570,606],[584,566,602],[584,566,602]],[[589,570,606],[270,263,282],[584,566,602],[584,566,602]],[[584,566,602],[270,263,282],[582,564,599],[582,564,599]],[[582,564,599],[270,263,282],[271,264,283],[271,264,283]],[[271,264,283],[270,263,282],[272,265,284],[272,265,284]],[[270,263,282],[589,570,606],[272,265,284],[272,265,284]],[[272,265,284],[589,570,606],[591,573,608],[591,573,608]],[[273,266,285],[274,267,286],[275,269,287],[275,269,287]],[[275,269,287],[274,267,286],[276,270,288],[276,270,288]],[[274,267,286],[277,271,289],[276,270,288],[276,270,288]],[[276,270,288],[277,271,289],[278,272,291],[278,272,291]],[[280,273,292],[281,274,293],[282,275,294],[282,275,294]],[[281,274,293],[283,276,295],[282,275,294],[282,275,294]],[[282,275,294],[283,276,295],[284,277,296],[284,277,296]],[[283,276,295],[285,278,297],[284,277,296],[284,277,296]],[[284,277,296],[285,278,297],[286,280,298],[286,280,298]],[[280,273,292],[282,275,294],[287,281,299],[287,281,299]],[[282,275,294],[284,277,296],[287,281,299],[287,281,299]],[[287,281,299],[284,277,296],[288,282,300],[288,282,300]],[[284,277,296],[286,280,298],[288,282,300],[288,282,300]],[[288,282,300],[286,280,298],[289,283,302],[289,283,302]],[[286,280,298],[291,284,303],[289,283,302],[289,283,302]],[[289,283,302],[291,284,303],[292,285,304],[292,285,304]],[[292,285,304],[291,284,303],[293,286,305],[293,286,305]],[[291,284,303],[294,287,306],[293,286,305],[293,286,305]],[[293,286,305],[294,287,306],[295,288,307],[295,288,307]],[[295,288,307],[294,287,306],[296,289,308],[296,289,308]],[[296,289,308],[294,287,306],[297,291,309],[297,291,309]],[[294,287,306],[291,284,303],[297,291,309],[297,291,309]],[[297,291,309],[291,284,303],[298,292,310],[298,292,310]],[[298,292,310],[291,284,303],[299,293,311],[299,293,311]],[[291,284,303],[286,280,298],[299,293,311],[299,293,311]],[[300,294,313],[302,295,314],[303,296,315],[303,296,315]],[[302,295,314],[304,297,316],[303,296,315],[303,296,315]],[[303,296,315],[304,297,316],[305,298,317],[305,298,317]],[[305,298,317],[304,297,316],[306,299,318],[306,299,318]],[[306,299,318],[304,297,316],[307,300,319],[307,300,319]],[[304,297,316],[302,295,314],[307,300,319],[307,300,319]],[[308,302,320],[309,303,321],[310,304,322],[310,304,322]],[[309,303,321],[311,305,324],[310,304,322],[310,304,322]],[[310,304,322],[311,305,324],[313,306,325],[313,306,325]],[[313,306,325],[311,305,324],[314,307,326],[314,307,326]],[[314,307,326],[311,305,324],[315,308,327],[315,308,327]],[[311,305,324],[309,303,321],[315,308,327],[315,308,327]],[[316,309,328],[317,310,329],[318,311,330],[318,311,330]],[[317,310,329],[319,313,331],[318,311,330],[318,311,330]],[[318,311,330],[319,313,331],[320,314,332],[320,314,332]],[[320,314,332],[319,313,331],[321,315,333],[321,315,333]],[[321,315,333],[319,313,331],[322,316,336],[322,316,336]],[[319,313,331],[317,310,329],[322,316,336],[322,316,336]],[[324,317,337],[325,318,338],[326,319,339],[326,319,339]],[[325,318,338],[327,320,340],[326,319,339],[326,319,339]],[[327,320,340],[328,321,341],[326,319,339],[326,319,339]],[[328,321,341],[329,322,342],[326,319,339],[326,319,339]],[[329,322,342],[330,324,343],[326,319,339],[326,319,339]],[[326,319,339],[330,324,343],[324,317,337],[324,317,337]],[[331,325,344],[332,326,345],[333,327,347],[333,327,347]],[[332,326,345],[336,328,348],[333,327,347],[333,327,347]],[[336,328,348],[337,329,349],[333,327,347],[333,327,347]],[[337,329,349],[338,330,350],[333,327,347],[333,327,347]],[[338,330,350],[339,331,351],[333,327,347],[333,327,347]],[[333,327,347],[339,331,351],[331,325,344],[331,325,344]],[[340,332,352],[341,333,353],[342,336,354],[342,336,354]],[[341,333,353],[343,337,355],[342,336,354],[342,336,354]],[[343,337,355],[344,338,356],[342,336,354],[342,336,354]],[[344,338,356],[345,339,358],[342,336,354],[342,336,354]],[[345,339,358],[347,340,359],[342,336,354],[342,336,354]],[[342,336,354],[347,340,359],[340,332,352],[340,332,352]],[[348,341,360],[349,342,361],[350,343,362],[350,343,362]],[[349,342,361],[351,344,363],[350,343,362],[350,343,362]],[[351,344,363],[352,345,364],[350,343,362],[350,343,362]],[[352,345,364],[353,347,365],[350,343,362],[350,343,362]],[[353,347,365],[354,348,366],[350,343,362],[350,343,362]],[[350,343,362],[354,348,366],[348,341,360],[348,341,360]],[[355,349,367],[356,350,369],[358,351,370],[358,351,370]],[[356,350,369],[359,352,371],[358,351,370],[358,351,370]],[[358,351,370],[359,352,371],[360,353,372],[360,353,372]],[[360,353,372],[359,352,371],[361,354,373],[361,354,373]],[[359,352,371],[356,350,369],[361,354,373],[361,354,373]],[[361,354,373],[356,350,369],[362,355,374],[362,355,374]],[[363,356,375],[364,358,376],[365,359,377],[365,359,377]],[[364,358,376],[366,360,378],[365,359,377],[365,359,377]],[[365,359,377],[366,360,378],[367,361,380],[367,361,380]],[[367,361,380],[366,360,378],[369,362,381],[369,362,381]],[[369,362,381],[366,360,378],[370,363,382],[370,363,382]],[[366,360,378],[364,358,376],[370,363,382],[370,363,382]],[[371,364,383],[372,365,384],[373,366,385],[373,366,385]],[[372,365,384],[374,367,386],[373,366,385],[373,366,385]],[[374,367,386],[375,369,387],[373,366,385],[373,366,385]],[[375,369,387],[376,370,388],[373,366,385],[373,366,385]],[[376,370,388],[377,371,389],[373,366,385],[373,366,385]],[[377,371,389],[378,372,391],[373,366,385],[373,366,385]],[[373,366,385],[378,372,391],[371,364,383],[371,364,383]],[[380,373,392],[381,374,393],[382,375,394],[382,375,394]],[[381,374,393],[383,376,395],[382,375,394],[382,375,394]],[[382,375,394],[383,376,395],[38,23,42],[38,23,42]],[[38,23,42],[383,376,395],[25,10,29],[25,10,29]],[[25,10,29],[383,376,395],[16,593,20],[16,593,20]],[[383,376,395],[381,374,393],[16,593,20],[16,593,20]],[[384,377,396],[385,378,397],[386,380,398],[386,380,398]],[[386,380,398],[385,378,397],[387,381,399],[387,381,399]],[[385,378,397],[388,382,400],[387,381,399],[387,381,399]],[[388,382,400],[389,383,402],[387,381,399],[387,381,399]],[[389,383,402],[391,384,403],[387,381,399],[387,381,399]],[[391,384,403],[392,385,404],[387,381,399],[387,381,399]],[[387,381,399],[392,385,404],[386,380,398],[386,380,398]],[[393,386,405],[394,387,406],[391,384,403],[391,384,403]],[[391,384,403],[394,387,406],[395,388,407],[395,388,407]],[[394,387,406],[396,389,408],[395,388,407],[395,388,407]],[[396,389,408],[397,391,409],[395,388,407],[395,388,407]],[[397,391,409],[398,392,410],[395,388,407],[395,388,407]],[[395,388,407],[398,392,410],[391,384,403],[391,384,403]],[[398,392,410],[399,393,411],[391,384,403],[391,384,403]],[[391,384,403],[399,393,411],[392,385,404],[392,385,404]],[[392,385,404],[399,393,411],[400,394,413],[400,394,413]],[[400,394,413],[399,393,411],[402,395,414],[402,395,414]],[[402,395,414],[399,393,411],[403,396,415],[403,396,415]],[[399,393,411],[398,392,410],[403,396,415],[403,396,415]],[[404,397,416],[405,398,417],[406,399,418],[406,399,418]],[[405,398,417],[407,400,419],[406,399,418],[406,399,418]],[[406,399,418],[407,400,419],[408,402,420],[408,402,420]],[[407,400,419],[409,403,421],[408,402,420],[408,402,420]],[[408,402,420],[409,403,421],[410,404,422],[410,404,422]],[[410,404,422],[409,403,421],[411,405,424],[411,405,424]],[[409,403,421],[407,400,419],[411,405,424],[411,405,424]],[[411,405,424],[407,400,419],[413,406,425],[413,406,425]],[[414,407,426],[415,408,427],[416,409,428],[416,409,428]],[[416,409,428],[415,408,427],[405,410,429],[405,410,429]],[[405,410,429],[415,408,427],[417,411,430],[417,411,430]],[[415,408,427],[418,413,431],[417,411,430],[417,411,430]],[[417,411,430],[418,413,431],[419,414,432],[419,414,432]],[[418,413,431],[420,415,433],[419,414,432],[419,414,432]],[[419,414,432],[420,415,433],[421,416,435],[421,416,435]],[[421,416,435],[420,415,433],[422,417,436],[422,417,436]],[[422,417,436],[420,415,433],[424,418,437],[424,418,437]],[[420,415,433],[418,413,431],[424,418,437],[424,418,437]],[[424,418,437],[418,413,431],[425,419,438],[425,419,438]],[[418,413,431],[426,420,439],[425,419,438],[425,419,438]],[[425,419,438],[426,420,439],[414,421,440],[414,421,440]],[[427,422,441],[428,424,442],[429,425,443],[429,425,443]],[[429,425,443],[428,424,442],[430,426,444],[430,426,444]],[[430,426,444],[428,424,442],[431,427,447],[431,427,447]],[[428,424,442],[432,428,448],[431,427,447],[431,427,447]],[[431,427,447],[432,428,448],[433,429,449],[433,429,449]],[[433,429,449],[432,428,448],[435,430,450],[435,430,450]],[[435,430,450],[432,428,448],[436,431,451],[436,431,451]],[[432,428,448],[428,424,442],[436,431,451],[436,431,451]],[[436,431,451],[428,424,442],[437,432,452],[437,432,452]],[[438,433,453],[439,435,454],[440,436,455],[440,436,455]],[[440,436,455],[439,435,454],[441,437,456],[441,437,456]],[[439,435,454],[442,438,458],[441,437,456],[441,437,456]],[[442,438,458],[443,439,459],[441,437,456],[441,437,456]],[[441,437,456],[443,439,459],[444,440,460],[444,440,460]],[[443,439,459],[447,441,461],[444,440,460],[444,440,460]],[[447,441,461],[448,442,462],[444,440,460],[444,440,460]],[[448,442,462],[440,436,455],[444,440,460],[444,440,460]],[[444,440,460],[440,436,455],[441,437,456],[441,437,456]],[[449,443,463],[450,444,464],[451,447,465],[451,447,465]],[[451,447,465],[450,444,464],[452,448,466],[452,448,466]],[[452,448,466],[450,444,464],[453,449,467],[453,449,467]],[[453,449,467],[450,444,464],[454,450,469],[454,450,469]],[[450,444,464],[455,451,470],[454,450,469],[454,450,469]],[[454,450,469],[455,451,470],[456,452,471],[456,452,471]],[[456,452,471],[455,451,470],[458,453,472],[458,453,472]],[[458,453,472],[455,451,470],[459,454,473],[459,454,473]],[[459,454,473],[455,451,470],[460,455,474],[460,455,474]],[[455,451,470],[450,444,464],[460,455,474],[460,455,474]],[[461,456,475],[462,458,476],[463,459,477],[463,459,477]],[[462,458,476],[464,460,478],[463,459,477],[463,459,477]],[[463,459,477],[464,460,478],[465,461,480],[465,461,480]],[[464,460,478],[454,450,469],[465,461,480],[465,461,480]],[[465,461,480],[454,450,469],[466,462,481],[466,462,481]],[[454,450,469],[456,452,471],[466,462,481],[466,462,481]],[[466,462,481],[456,452,471],[467,463,482],[467,463,482]],[[456,452,471],[469,464,483],[467,463,482],[467,463,482]],[[469,464,483],[470,465,484],[467,463,482],[467,463,482]],[[470,465,484],[471,466,485],[467,463,482],[467,463,482]],[[471,466,485],[472,467,486],[467,463,482],[467,463,482]],[[467,463,482],[472,467,486],[466,462,481],[466,462,481]],[[466,462,481],[472,467,486],[473,469,487],[473,469,487]],[[473,469,487],[472,467,486],[474,470,488],[474,470,488]],[[472,467,486],[475,471,489],[474,470,488],[474,470,488]],[[474,470,488],[475,471,489],[476,472,491],[476,472,491]],[[477,473,492],[478,474,493],[480,475,494],[480,475,494]],[[478,474,493],[481,476,495],[480,475,494],[480,475,494]],[[480,475,494],[481,476,495],[482,477,496],[482,477,496]],[[482,477,496],[481,476,495],[483,478,497],[483,478,497]],[[481,476,495],[484,480,498],[483,478,497],[483,478,497]],[[483,478,497],[484,480,498],[485,481,499],[485,481,499]],[[485,481,499],[484,480,498],[486,482,500],[486,482,500]],[[486,482,500],[484,480,498],[487,483,502],[487,483,502]],[[487,483,502],[484,480,498],[478,474,493],[478,474,493]],[[484,480,498],[481,476,495],[478,474,493],[478,474,493]],[[488,484,503],[489,485,504],[491,486,505],[491,486,505]],[[489,485,504],[492,487,506],[491,486,505],[491,486,505]],[[491,486,505],[492,487,506],[493,488,507],[493,488,507]],[[492,487,506],[494,489,508],[493,488,507],[493,488,507]],[[493,488,507],[494,489,508],[495,491,509],[495,491,509]],[[494,489,508],[496,492,510],[495,491,509],[495,491,509]],[[496,492,510],[497,493,511],[495,491,509],[495,491,509]],[[497,493,511],[498,494,513],[495,491,509],[495,491,509]],[[498,494,513],[499,495,514],[495,491,509],[495,491,509]],[[499,495,514],[500,496,515],[495,491,509],[495,491,509]],[[495,491,509],[500,496,515],[493,488,507],[493,488,507]],[[502,497,516],[503,498,517],[504,499,518],[504,499,518]],[[503,498,517],[505,500,519],[504,499,518],[504,499,518]],[[505,500,519],[506,502,520],[504,499,518],[504,499,518]],[[504,499,518],[506,502,520],[507,503,521],[507,503,521]],[[506,502,520],[508,504,522],[507,503,521],[507,503,521]],[[508,504,522],[509,505,524],[507,503,521],[507,503,521]],[[509,505,524],[510,506,525],[507,503,521],[507,503,521]],[[510,506,525],[511,507,526],[507,503,521],[507,503,521]],[[511,507,526],[513,508,527],[507,503,521],[507,503,521]],[[507,503,521],[513,508,527],[504,499,518],[504,499,518]],[[513,508,527],[514,509,528],[504,499,518],[504,499,518]],[[504,499,518],[514,509,528],[502,497,516],[502,497,516]],[[515,510,529],[516,511,530],[517,513,531],[517,513,531]],[[517,513,531],[516,511,530],[518,514,532],[518,514,532]],[[516,511,530],[519,515,533],[518,514,532],[518,514,532]],[[518,514,532],[519,515,533],[520,516,535],[520,516,535]],[[519,515,533],[521,517,536],[520,516,535],[520,516,535]],[[520,516,535],[521,517,536],[522,518,537],[522,518,537]],[[521,517,536],[524,519,538],[522,518,537],[522,518,537]],[[524,519,538],[525,520,539],[522,518,537],[522,518,537]],[[525,520,539],[517,513,531],[522,518,537],[522,518,537]],[[517,513,531],[518,514,532],[522,518,537],[522,518,537]],[[522,518,537],[518,514,532],[520,516,535],[520,516,535]],[[526,521,540],[527,522,541],[528,524,542],[528,524,542]],[[527,522,541],[529,525,543],[528,524,542],[528,524,542]],[[528,524,542],[529,525,543],[530,526,544],[530,526,544]],[[530,526,544],[529,525,543],[531,527,546],[531,527,546]],[[529,525,543],[527,522,541],[531,527,546],[531,527,546]],[[531,527,546],[527,522,541],[532,528,547],[532,528,547]],[[527,522,541],[533,529,548],[532,528,547],[532,528,547]],[[532,528,547],[533,529,548],[535,530,549],[535,530,549]],[[533,529,548],[536,531,550],[535,530,549],[535,530,549]],[[535,530,549],[536,531,550],[537,532,551],[537,532,551]],[[537,532,551],[536,531,550],[538,533,552],[538,533,552]],[[536,531,550],[533,529,548],[538,533,552],[538,533,552]],[[538,533,552],[533,529,548],[539,535,553],[539,535,553]],[[540,536,554],[541,537,555],[542,538,558],[542,538,558]],[[541,537,555],[543,539,559],[542,538,558],[542,538,558]],[[542,538,558],[543,539,559],[544,540,560],[544,540,560]],[[544,540,560],[543,539,559],[546,541,561],[546,541,561]],[[543,539,559],[541,537,555],[546,541,561],[546,541,561]],[[546,541,561],[541,537,555],[547,542,562],[547,542,562]],[[547,542,562],[541,537,555],[548,543,563],[548,543,563]],[[541,537,555],[549,544,564],[548,543,563],[548,543,563]],[[548,543,563],[549,544,564],[550,546,565],[550,546,565]],[[549,544,564],[551,547,566],[550,546,565],[550,546,565]],[[550,546,565],[551,547,566],[552,548,567],[552,548,567]],[[552,548,567],[551,547,566],[553,549,569],[553,549,569]],[[551,547,566],[549,544,564],[553,549,569],[553,549,569]],[[553,549,569],[549,544,564],[541,537,555],[541,537,555]]]},
				"cubes": [
					{"origin": [-4, 24, -4], "size": [8, 8, 8], "uv": [32, 0], "inflate": 0.5}
				]
			},
			{
				"name": "cape",
				"parent": "body",
				"pivot": [0, 24, 3]
			},
			{
				"name": "leftArm",
				"parent": "body",
				"pivot": [5, 22, 0],
				"cubes": [
					{"origin": [4, 12, -2], "size": [4, 12, 4], "uv": [32, 48]}
				]
			},
			{
				"name": "leftSleeve",
				"parent": "leftArm",
				"pivot": [5, 22, 0],
				"cubes": [
					{"origin": [4, 12, -2], "size": [4, 12, 4], "uv": [48, 48], "inflate": 0.25}
				]
			},
			{
				"name": "leftItem",
				"parent": "leftArm",
				"pivot": [6, 15, 1]
			},
			{
				"name": "rightArm",
				"parent": "body",
				"pivot": [-5, 22, 0],
				"cubes": [
					{"origin": [-8, 12, -2], "size": [4, 12, 4], "uv": [40, 16]}
				]
			},
			{
				"name": "rightSleeve",
				"parent": "rightArm",
				"pivot": [-5, 22, 0],
				"cubes": [
					{"origin": [-8, 12, -2], "size": [4, 12, 4], "uv": [40, 32], "inflate": 0.25}
				]
			},
			{
				"name": "rightItem",
				"parent": "rightArm",
				"pivot": [-6, 15, 1],
				"locators": {
					"lead_hold": [-6, 15, 1]
				}
			},
			{
				"name": "jacket",
				"parent": "body",
				"pivot": [0, 24, 0],
				"cubes": [
					{"origin": [-4, 12, -2], "size": [8, 12, 4], "uv": [16, 32], "inflate": 0.25}
				]
			},
			{
				"name": "leftLeg",
				"parent": "root",
				"pivot": [1.9, 12, 0],
				"cubes": [
					{"origin": [-0.1, 0, -2], "size": [4, 12, 4], "uv": [16, 48]}
				]
			},
			{
				"name": "leftPants",
				"parent": "leftLeg",
				"pivot": [1.9, 12, 0],
				"cubes": [
					{"origin": [-0.1, 0, -2], "size": [4, 12, 4], "uv": [0, 48], "inflate": 0.25}
				]
			},
			{
				"name": "rightLeg",
				"parent": "root",
				"pivot": [-1.9, 12, 0],
				"cubes": [
					{"origin": [-3.9, 0, -2], "size": [4, 12, 4], "uv": [0, 16]}
				]
			},
			{
				"name": "rightPants",
				"parent": "rightLeg",
				"pivot": [-1.9, 12, 0],
				"cubes": [
					{"origin": [-3.9, 0, -2], "size": [4, 12, 4], "uv": [0, 32], "inflate": 0.25}
				]
			}
		]
	}
}